<?xml version="1.0" encoding="UTF-8" standalone="no"?>
<!-- Created with Inkscape (http://www.inkscape.org/) -->

<svg
   xmlns:dc="http://purl.org/dc/elements/1.1/"
   xmlns:cc="http://creativecommons.org/ns#"
   xmlns:rdf="http://www.w3.org/1999/02/22-rdf-syntax-ns#"
   xmlns:svg="http://www.w3.org/2000/svg"
   xmlns="http://www.w3.org/2000/svg"
   xmlns:xlink="http://www.w3.org/1999/xlink"
   xmlns:sodipodi="http://sodipodi.sourceforge.net/DTD/sodipodi-0.dtd"
   xmlns:inkscape="http://www.inkscape.org/namespaces/inkscape"
   width="900"
   height="700"
   id="svg2"
   version="1.1"
   inkscape:version="0.48.4 r9939"
   sodipodi:docname="design03.svg">
  <defs
     id="defs3">
    <style
       type="text/css"
       id="style5">@import url(http://fonts.googleapis.com/css?family=Raleway);</style>
  </defs>
  <sodipodi:namedview
     id="base"
     pagecolor="#ffffff"
     bordercolor="#666666"
     borderopacity="1.0"
     inkscape:pageopacity="0.0"
     inkscape:pageshadow="2"
     inkscape:zoom="0.98994949"
     inkscape:cx="491.05902"
     inkscape:cy="380.44239"
     inkscape:document-units="px"
     inkscape:current-layer="layer1"
     showgrid="false"
     inkscape:window-width="1855"
     inkscape:window-height="1056"
     inkscape:window-x="65"
     inkscape:window-y="24"
     inkscape:window-maximized="1" />
  <metadata
     id="metadata7">
    <rdf:RDF>
      <cc:Work
         rdf:about="">
        <dc:format>image/svg+xml</dc:format>
        <dc:type
           rdf:resource="http://purl.org/dc/dcmitype/StillImage" />
        <dc:title></dc:title>
      </cc:Work>
    </rdf:RDF>
  </metadata>
  <g
     inkscape:label="Layer 1"
     inkscape:groupmode="layer"
     id="layer1"
     transform="translate(0,-352.36218)">
    <rect
       style="fill:#0069b4;fill-opacity:1"
       id="rect2985"
       width="783.79065"
       height="161.12808"
       x="10.005956"
       y="697.93872"
       ry="29.088636" />
    <g
       id="g3077"
       style="opacity:1">
      <rect
         ry="16.737709"
         y="367.38605"
         x="9.5964651"
         height="92.713699"
         width="783.79065"
         id="rect2985-6"
         style="fill:#0069b4;fill-opacity:1" />
      <rect
         ry="15.960739"
         y="406.39328"
         x="246.80371"
         height="88.409889"
         width="212.73329"
         id="rect2985-1-9-2"
         style="fill:#ffffff;fill-opacity:1;stroke:#0069b4;stroke-width:3.19133139000000021;stroke-miterlimit:4;stroke-opacity:1;stroke-dasharray:none" />
      <rect
         ry="15.670255"
         y="407.19785"
         x="23.20001"
         height="86.800835"
         width="212.76225"
         id="rect2985-1-9"
         style="fill:#ffffff;fill-opacity:1;stroke:#0069b4;stroke-width:3.16237186999999986;stroke-miterlimit:4;stroke-opacity:1;stroke-dasharray:none" />
      <rect
         transform="matrix(0,1,-1,0,0,0)"
         ry="0"
         y="-614.92621"
         x="446.50327"
         height="112.3699"
         width="153.1545"
         id="rect2985-4-7-6-1-5"
         style="fill:#0069b4;fill-opacity:1" />
      <text
         sodipodi:linespacing="125%"
         id="text6205-5-59"
         y="446.7377"
         x="48.546589"
         style="font-size:32.43106842000000256px;font-style:normal;font-variant:normal;font-weight:normal;font-stretch:normal;line-height:125%;letter-spacing:0px;word-spacing:0px;fill:#0069b4;fill-opacity:1;stroke:none;font-family:Raleway;-inkscape-font-specification:Raleway"
         xml:space="preserve"><tspan
           y="446.7377"
           x="48.546589"
           id="tspan6207-1-0"
           sodipodi:role="line">Instance1</tspan></text>
      <text
         sodipodi:linespacing="125%"
         id="text6205-5-59-8"
         y="444.81644"
         x="277.25537"
         style="font-size:32.43106842000000256px;font-style:normal;font-variant:normal;font-weight:normal;font-stretch:normal;line-height:125%;letter-spacing:0px;word-spacing:0px;fill:#0069b4;fill-opacity:1;stroke:none;font-family:Raleway;-inkscape-font-specification:Raleway"
         xml:space="preserve"><tspan
           y="444.81644"
           x="277.25537"
           id="tspan6207-1-0-2"
           sodipodi:role="line">Instance2</tspan></text>
      <text
         sodipodi:linespacing="125%"
         id="text6205-6"
         y="400.87314"
         x="494.08704"
         style="font-size:32.43106842000000256px;font-style:normal;font-variant:normal;font-weight:normal;font-stretch:normal;line-height:125%;letter-spacing:0px;word-spacing:0px;fill:#ffffff;fill-opacity:1;stroke:none;font-family:Raleway;-inkscape-font-specification:Raleway"
         xml:space="preserve"><tspan
           y="400.87314"
           x="474.08704"
           id="tspan6207-0"
           sodipodi:role="line">OpenStack </tspan><tspan
           id="tspan8658"
           y="441.41196"
           x="474.08704"
           sodipodi:role="line">(QEMU/nested KVM)</tspan></text>
    </g>
    <g
       id="g3090"
       style="opacity:0">
      <rect
         ry="7.0444608"
         y="541.01581"
         x="34.985703"
         height="14.088922"
         width="621.62701"
         id="rect2985-4-8"
         style="fill:#008000;fill-opacity:1" />
      <rect
         transform="matrix(0,1,-1,0,0,0)"
         ry="7.0444608"
         y="-330.7305"
         x="543.96527"
         height="14.088922"
         width="57.330559"
         id="rect2985-4-7-6-7"
         style="fill:#008000;fill-opacity:1" />
      <rect
         transform="matrix(0,1,-1,0,0,0)"
         ry="7.0444608"
         y="-297.97015"
         x="477.62558"
         height="14.088922"
         width="70.434677"
         id="rect2985-4-7-6-2"
         style="fill:#008000;fill-opacity:1" />
      <rect
         transform="matrix(0,1,-1,0,0,0)"
         ry="7.0444608"
         y="-71.923958"
         x="475.98758"
         height="14.088922"
         width="70.434677"
         id="rect2985-4-7-6-2-2"
         style="fill:#008000;fill-opacity:1" />
      <text
         sodipodi:linespacing="125%"
         id="text8416-4"
         y="553.14392"
         x="663.11157"
         style="font-size:32.43106842000000256px;font-style:normal;font-weight:bold;line-height:125%;letter-spacing:0px;word-spacing:0px;fill:#008000;fill-opacity:1;stroke:none;font-family:Sans;-inkscape-font-specification:Sans Bold"
         xml:space="preserve"><tspan
           style="font-size:16.21553421000000128px;font-weight:bold;fill:#008000;-inkscape-font-specification:Sans Bold"
           y="553.14392"
           x="663.11157"
           id="tspan8418-4"
           sodipodi:role="line">10.240.0.XX</tspan></text>
      <text
         sodipodi:linespacing="125%"
         id="text8416-4-1"
         y="571.16217"
         x="630.47284"
         style="font-size:32.43106842000000256px;font-style:normal;font-weight:bold;line-height:125%;letter-spacing:0px;word-spacing:0px;fill:#008000;fill-opacity:1;stroke:none;font-family:Sans;-inkscape-font-specification:Sans Bold"
         xml:space="preserve"><tspan
           style="font-size:16.21553421000000128px;font-weight:bold;fill:#008000;-inkscape-font-specification:Sans Bold"
           y="571.16217"
           x="630.47284"
           id="tspan8418-4-1"
           sodipodi:role="line">Tenant network</tspan></text>
    </g>
    <text
       xml:space="preserve"
       style="font-size:32.43106842px;font-style:normal;font-variant:normal;font-weight:normal;font-stretch:normal;line-height:125%;letter-spacing:0px;word-spacing:0px;fill:#0069b4;fill-opacity:1;stroke:none;font-family:Raleway;-inkscape-font-specification:Raleway"
       x="76.583282"
       y="888.30145"
       id="text6205-5-5-6"
       sodipodi:linespacing="125%"><tspan
         sodipodi:role="line"
         id="tspan6207-1-9-6"
         x="76.583282"
         y="888.30145">Bridges to physical nics</tspan></text>
    <g
       id="g3166">
      <text
         sodipodi:linespacing="125%"
         id="text6205"
         y="848.29071"
         x="25.258446"
         style="font-size:32.43106842px;font-style:normal;font-variant:normal;font-weight:normal;font-stretch:normal;line-height:125%;letter-spacing:0px;word-spacing:0px;fill:#ffffff;fill-opacity:1;stroke:none;font-family:Raleway;-inkscape-font-specification:Raleway"
         xml:space="preserve"><tspan
           y="848.29071"
           x="25.258446"
           id="tspan6207"
           sodipodi:role="line">Vagrant (Libvirt+KVM)</tspan></text>
      <g
         id="g3142">
        <rect
           style="fill:#ffffff;fill-opacity:1"
           id="rect2985-4-7-9-8"
           width="100.79496"
           height="14.088922"
           x="715.71191"
           y="-502.45456"
           ry="7.0444608"
           transform="matrix(0,1,-1,0,0,0)" />
        <rect
           style="fill:#ffffff;fill-opacity:1"
           id="rect2985-4-7-5"
           width="103.57985"
           height="14.088922"
           x="713.90991"
           y="-55.733128"
           ry="7.0444608"
           transform="matrix(0,1,-1,0,0,0)" />
        <rect
           style="fill:#ffffff;fill-opacity:1;stroke:#0069b4;stroke-width:4.05388355;stroke-miterlimit:4;stroke-opacity:1;stroke-dasharray:none"
           id="rect2985-1"
           width="211.87076"
           height="143.2399"
           x="24.464764"
           y="591.10144"
           ry="25.859262" />
        <image
           y="639.55463"
           x="35.160675"
           id="image6202"
           xlink:href="data:image/png;base64,iVBORw0KGgoAAAANSUhEUgAAAhwAAAIcCAIAAAAynOArAAAAA3NCSVQICAjb4U/gAAASVklEQVR4 nO3d+5NedWHH8d3sZpPs5gKBXIwhIdwMJEgosRVHxapQWxVakU5Bp3gb47Sj1o4d0XHqOPVSakct eB0URWXUArWgVAoIVJACwcQQGBLInSTknk3Y7Gbv/QW7TbqySfgk3/Psvl5/wDOfeSY57z3nPM95 6vv7++sAIGFU6QEADB+iAkCMqAAQIyoAxIgKADGiAkCMqAAQIyoAxIgKADGiAkCMqAAQIyoAxIgK ADGiAkCMqAAQIyoAxIgKADGiAkCMqAAQIyoAxIgKADGiAkCMqAAQIyoAxIgKADGiAkCMqAAQIyoA xIgKADGiAkCMqAAQIyoAxIgKADGiAkCMqAAQIyoAxIgKADGiAkCMqAAQIyoAxIgKADGiAkCMqAAQ IyoAxIgKADGiAkCMqAAQIyoAxIgKADGiAkCMqAAQIyoAxIgKADGiAkCMqAAQIyoAxIgKADGiAkCM qAAQIyoAxIgKADGiAkCMqAAQIyoAxIgKADGiAkCMqAAQIyoAxIgKADGiAkCMqAAQIyoAxIgKADGi AkCMqAAQIyoAxIgKADGiAkCMqAAQIyoAxIgKADGiAkCMqAAQIyoAxIgKADGiAkCMqAAQIyoAxIgK ADGiAkCMqAAQIyoAxIgKADGiAkCMqAAQIyoAxIgKADGiAkCMqAAQIyoAxIgKADGiAkCMqAAQIyoA xIgKADGiAkCMqAAQIyoAxIgKADGiAkCMqAAQIyoAxIgKADGiAkCMqAAQIyoAxDSWHjDc7O/uXfPs c5t2dWzY2b5tb9fejp593b2d3X2ldwF1oxvqx49pnDiucXLL6NknNs+cPO7kaeMnjBtdetewIioZ q5597t4ntt2zctcta/d29/WXngMcqotnjX/DGZP/cN7U+bOOq68vvab21ff3OwIeufbOntsWb/rO Q5vv3Lyv9BbgRVk4ecyiV854+/knHdfSVHpLDROVI9S2v+fHv1r/2XufWdveU3oLENPSWP8Pr515 5QUnT54wpvSWmiQqh62/ru6ex7Z85CdPLd/TVXoLcFRMH9Nw7VtP/bNXntQwyhWxwyMqh2d3W9fH f/z4N5/YVXoIcNRdMmvCV9559swTm0sPqSWichiWr9v9jhuWO0GBkWPG2IYbrzjrdfOnlR5SM0Tl UN22eOPbfrSy19sFI8/X33TyogtP89mwQyEqh+T6e9a892drSq8Aivn0q2Z88tIzRwnLUHxPZWjf /sXq992+tvQKoKRPPbi5rq5OV4bkMS1DuPnBDYoC1NXVferBzV/62VOlV1Sdy18v5KGV28//5rLS K4AKufmyMy49f1bpFdXlTOV32traccX3nyi9AqiWy295esXGPaVXVJeoDK6nt+9DP1ju2/LAQbr7 +t91w/LnOrpLD6koURncTQ8+869r9pZeAVTRwzv3f+WOVaVXVJSoDGLbnv0fvH116RVAdX3i/k1P PuMi2CBEZRDX/HzVzi6/gAK8kL//95U+5vT/icrBNu5o//ziLaVXAFV389q9S1d7DODBROVg37t/ vR/ZAg7FNXd70MbBROUA7Z09V//3s6VXALXhhpWtz+zwA30HEJUDPPDk9r097qYAh+rOZa6WH0BU DnDrUv8+gMPw3UccNA4gKgO6e/p+uGJ36RVALXlge8eW3R2lV1SIqAx4avPe3d2ufQGH57H1raUn VIhH3w9YviH8VabRo+oXzT/h3FkTJ7eMrve4bChtT3v3k5vbrntse/aLaEvWtV604CXBF6xpojJg zfb24Ktd+bLjPnfZWTMm+3VrqJaPXdJ19a0r//HRrakXfGpb8tBR60RlwNO5fxkfmHfCte86p7HB 1UWonONamj53xdmTmhs//stNkRf8zRZRGeCoN+DJHZm7bae2NP7TFfMVBSqrvq7uo2+de9GMlsir LW3t7HI79rcc+Abs2J950P3HLjhpwrjRkZcCjpLGhvq/fcPs1Kvt7+5NvVStE5UBq/dlorLwlOMj rwMcVefOmZx6qU5R+S1RyTt+fFPpCcDQgv9V2zv9oN/zRAUYoUY3xg6AHkL7v0QFgBhRASBGVACI ERUAYkQFgBhRASBGVACIERUAYkQFgBhRASBGVACIERUAYkQFgBhRASBGVACIERUAYkQFgBhRASBG VACIERUAYkQFgBhRASBGVACIERUAYkQFgBhRASBGVACIERUAYkQFgBhRASBGVACIERUAYkQFgBhR ASBGVACIERUAYkQFgBhRASBGVACIERUAYkQFgBhRASBGVACIERUAYkQFgBhRASBGVACIERUAYkQF gBhRASBGVACIERUAYkQFgBhRASBGVACIERUAYkQFgBhRASBGVACIERUAYkQFgBhRASBGVACIERUA YkQFgBhRASBGVACIERUAYkQFgBhRASBGVACIERUAYkQFgBhRASBGVACIERUAYkQFgBhRASBGVACI ERUAYkQFgBhRASBGVACIERUAYkQFgBhRASBGVACIERUAYkQFgBhRASBGVACIERUAYkQFgBhRASBG VACIERUAYkQFgBhRASBGVACIERUAYkQFgBhRASBGVACIERUAYkQFgBhRASBGVACIERUAYkQFgBhR ASBGVACIERUAYkQFgBhRASBGVACIERUAYkQFgBhRASBGVACIERUAYkQFgBhRASBGVACIERUAYkQF gBhRASBGVACIERUAYkQFgBhRASBGVACIERUAYkQFgBhRASBGVACIERUAYkQFgBhRASBGVACIERUA YkQFgBhRASBGVACIERUAYkQFgBhRASBGVACIERUAYkQFgBhRASBGVACIERUAYkQFgBhRASBGVACI EZW8/v7SC4BD0NXdV3rCMCQqeTv2dpaeAAxt2579pScMQ6KS98DKHaUnAENbvGpn6QnDkKjkffaB TVtbO0qvAF5Ie2fPZ+9aV3rFMCQqeTu7+t7/3WV727tLDwEG19Xdd9WPHv/1bleq80TlqLhtQ9tb rnnk106uoXpWPfvcO7/56LXLXKY+KhpLDxi27t/WsfBrS189ZdwFcya1jGkoPQeo6+juXbKx7faN baWHDGeicnQ9sL3jge3urwAjhctfAMSICgAxogJAjKgAECMqAMSICgAxogJAjKgAECMqAMSICgAx ogJAjKgAECMqAMSICgAxogJAjKgAECMqAMSICgAxogJAjKgAECMqAMSICgAxogJAjKgAECMqAMSI CgAxogJAjKgAECMqAMSICgAxogJAjKgAECMqAMSICgAxogJAjKgAECMqAMSICgAxogJAjKgAECMq AMSICsCL1TymsfSEqhCVAXOa/bMAjsSYRsfS53kjBkwe01B6AlCTxjQ5ejxPVAacMXls6QlA7Tlj /Oixo0XleaIyYO60ltITgNpz3rTm0hMqRFQGzDlxXOkJQO05c7q/RweIyoD5syaVngDUnnNnO3QM EJUBZ86c1FBfX3oFUGNePvu40hMqRFQGjG1q+IvT/MUBHIazJzWddKLLXwNE5QBv/71ppScAteQ9 C6e7wPF/icoBXjd/mitgwKH74wXTS0+oFlE5wHEtTX9z7pTSK4Da8OaZ48946cTSK6pFVA626PUn l54A1IaPXjjHlY2DiMrBTp8x8f1nTS69Aqi6109vfs28qaVXVI6oDOKqt57hzgrwwj5z8ekNoxwo DiYqg5gzbfyX3nhS6RVAdX14wZTz57r/OghRGdx7X3/KBVM9tQUYxJzmxk9c8rLSKypKVAbXPKbx W1e+vKXRuS1wsB+8c97USR5qPjhR+Z1Oe8mEG9/ujxHgANdcOOtVLnz9bqLyQi75/ZlfesOs0iuA qvjwgil//abTS6+oNFEZwof+5PRPv2pG6RVAee+Ze/w/XX72KB8NfUGiMoRR9fWfvPRMXYERbtG8 yddeeU7TaMfMIdT39/eX3lAD+vr7v3bHqg/etb70EKCAqxZO+/Rl8xTlUIjKYfjPpZsv/9GK3d19 pYcAx0hDff13Lz7litee7KrXIRKVw7NuW9ui7y2/c/O+0kOAo+7sSU3f/8uzz5lzfOkhtURUDltX d9+N96/74B1r9/V462B4GlVfd/UFMz9w0WnjxzaW3lJjROUIbd7Z/rW71nx+8ZY+7x8MLx+Yd8JH 3nSqZ9ofGVF5UTbuaL/xgfXXPLJl8/7e0luAF6Wlsf5D50599wWzT58hJ0dOVAI6u3sffmrHz5dt +7cVu55q6y49BzgMM8Y2XDZ38h/Nn/Kas6a62PXiiUpSf3/dMzv2rdy0d8PO9nU7Ojbt6dy7v3dn R0+vN/kwtXX1LW3tLL2i0s6a2HTC2IbSK2rPlObG8U0N0yY0nTKlefaJzadNH3/K9AmeYB8kKlTR ktW7zvvqktIrKu3Wy+de/IqZpVfAwXyXhyrq6OopPaHq2jvdxqOKRIUqcsQcUtt+3aWKRIUq2tPu 8w5DaPUWUUmiQhWt39lRekLVrdjaXnoCDEJUqKInt3gQzhAe2dxWegIMQlSoIkfMIS3f0+W2ChUk KlTOruc6l+/pKr2iBjy9eW/pCXAwUaFyHlvfWnpCbViydnfpCXAwUaFyHl61q/SE2nD3Cm8UlSMq VM7tjpWH5qY1e9s73VahWkSFalm7te3+bT5PfEh6+/sfXLG99Ao4gKhQLXcu21J6Qi25denW0hPg AKJChfT3113/iKgchq8v37lnn0/KUSGiQoU8vqH1kV37S6+oJb39/fc+7mSFChEVKuSmhzaWnlB7 vvWrTaUnwABRoSpa93V94VF/dB+22ze2PbHBN3uoClGhKv5jyeb9vX4y7kjc9LCTFapCVKiE3r7+ a37p2tcR+ufFW1rdrqcaRIVK+NWT2x7e6Rb9EdrX0//TxU5WqARRoRK+cd+G0hNq2xf+65me3r7S K0BUqIAVG/f8cPWe0itq2/I9Xfc9vq30ChAVKuC6+9aVnjAcfPkX63zOgeJEhcI2bN/3xSUeYBVw +8a2R5/eWXoFI52oUNi3nabkfPWetaUnMNKJCiVt3NH+mYeeLb1i+LhhZasvQlKWqFDSdfeu7XMf IOqLd6wuPYERTVQoZv22Nqcpcdev2L10jV85oxhRoZiv3+005ai49m53VihGVChj7da2qz0+8uj4 zord7qxQiqhQxnd86Oto+spdTlYoQ1QoYHebp9wfXd94YuczO/aVXsFIJCoU4Cn3x8AtnodPCaJC AT/5jadUHXXXP7qlX7g55kSFY611X9ct6/aWXjH8Ld/TtepZ7zPHmqhwrG3e1VF6wkixfrvbKhxr osKxtm9/T+kJI8W+zt7SExhxRIVjbVLz6NITRopJ47zVHGuiwrE244Tm0hNGipkneqs51kSFY238 2MZLZk0ovWL4m9PcOGfa+NIrGHFEhQIuf8X00hOGv0ULpzWMqi+9ghFHVCjgzee9dPa4xtIrhrOG +vp3vHp26RWMRKJCAePHNl77p6eVXjGc/cuFs9xQoQhRoYy3vGLm3503tfSK4emyUya+/42nll7B CCUqlFFfV/eZP5//vrMmlx4y3Fw0o+W6dy8Y3ei/NmX4l0cxTaNHffXKBZ/8AzftY94z9/ib/mrh pJam0kMYuer7PXOO0u5etuWq257+9e7O0kNq2IyxDV9+y6lve+VJPvFFWaJCJXT19N33+Naf/mbr zSt3b/FwkUM2sXHUpadNuvicqRcteEnzGB+oozxRoVr66+pa27raO3u6e/tKb6m0hlH1LWMajxvf NKreqQkVIioAxLhRD0CMqAAQIyoAxIgKADGiAkCMqAAQIyoAxIgKADGiAkCMqAAQIyoAxIgKADGi AkCMqAAQIyoAxIgKADGiAkCMqAAQIyoAxIgKADGiAkCMqAAQIyoAxIgKADGiAkCMqAAQIyoAxIgK ADGiAkCMqAAQIyoAxIgKADGiAkCMqAAQIyoAxIgKADGiAkCMqAAQIyoAxIgKADGiAkCMqAAQIyoA xIgKADGiAkCMqAAQIyoAxIgKADGiAkCMqAAQIyoAxIgKADGiAkCMqAAQIyoAxIgKADGiAkCMqAAQ IyoAxIgKADGiAkCMqAAQIyoAxIgKADGiAkCMqAAQIyoAxIgKADGiAkCMqAAQIyoAxIgKADGiAkCM qAAQIyoAxIgKADGiAkCMqAAQIyoAxIgKADGiAkCMqAAQIyoAxIgKADGiAkCMqAAQIyoAxIgKADGi AkCMqAAQIyoAxIgKADGiAkCMqAAQIyoAxIgKADGiAkCMqAAQIyoAxIgKADGiAkCMqAAQIyoAxIgK ADGiAkCMqAAQIyoAxPwP96OfQEALvT4AAAAASUVORK5CYII= "
           height="82.369873"
           width="82.369873"
           style="fill:#0071bb;fill-opacity:1" />
        <text
           xml:space="preserve"
           style="font-size:32.43106842px;font-style:normal;font-variant:normal;font-weight:normal;font-stretch:normal;line-height:125%;letter-spacing:0px;word-spacing:0px;fill:#0069b4;fill-opacity:1;stroke:none;font-family:Raleway;-inkscape-font-specification:Raleway"
           x="49.365589"
           y="630.19543"
           id="text6205-5"
           sodipodi:linespacing="125%"><tspan
             sodipodi:role="line"
             id="tspan6207-1"
             x="49.365589"
             y="630.19543">Controller</tspan></text>
        <rect
           style="fill:#ffffff;fill-opacity:1;stroke:#0069b4;stroke-width:4.05388355;stroke-miterlimit:4;stroke-opacity:1;stroke-dasharray:none"
           id="rect2985-1-0"
           width="211.87076"
           height="143.2399"
           x="247.23497"
           y="588.64441"
           ry="25.859262" />
        <text
           xml:space="preserve"
           style="font-size:32.43106842px;font-style:normal;font-variant:normal;font-weight:normal;font-stretch:normal;line-height:125%;letter-spacing:0px;word-spacing:0px;fill:#0069b4;fill-opacity:1;stroke:none;font-family:Raleway;-inkscape-font-specification:Raleway"
           x="272.13577"
           y="627.73846"
           id="text6205-5-7"
           sodipodi:linespacing="125%"><tspan
             sodipodi:role="line"
             id="tspan6207-1-2"
             x="272.13577"
             y="627.73846">Network</tspan></text>
        <rect
           style="fill:#ffffff;fill-opacity:1;stroke:#0069b4;stroke-width:4.05388355;stroke-miterlimit:4;stroke-opacity:1;stroke-dasharray:none"
           id="rect2985-1-7"
           width="211.87076"
           height="143.2399"
           x="469.1861"
           y="587.82532"
           ry="25.859262" />
        <text
           xml:space="preserve"
           style="font-size:32.43106842px;font-style:normal;font-variant:normal;font-weight:normal;font-stretch:normal;line-height:125%;letter-spacing:0px;word-spacing:0px;fill:#0069b4;fill-opacity:1;stroke:none;font-family:Raleway;-inkscape-font-specification:Raleway"
           x="494.08698"
           y="626.91943"
           id="text6205-5-5"
           sodipodi:linespacing="125%"><tspan
             sodipodi:role="line"
             id="tspan6207-1-9"
             x="494.08698"
             y="626.91943">Compute</tspan></text>
        <rect
           style="fill:#ffffff;fill-opacity:1"
           id="rect2985-4-7-6-4"
           width="103.82543"
           height="14.088922"
           x="713.88269"
           y="-281.32227"
           ry="7.0444608"
           transform="matrix(0,1,-1,0,0,0)" />
        <image
           y="646.92572"
           x="261.20688"
           id="image7441"
           xlink:href="data:image/png;base64,iVBORw0KGgoAAAANSUhEUgAAAhwAAAIcCAIAAAAynOArAAAAA3NCSVQICAjb4U/gAAAZdklEQVR4 nO3de5hcdZng8equvifp3Dp3SEhIQiSQECQizDCioLgqMqKiO0JmRhkRH8W7O8zs4zwzu+Osg46i 64MiriNxFa8jIAwgiMqgck0CIcGQpMmVzj3pdDp9q679Y3300UGQ9Fv1O9Xn8/m/f/U+p6rOt8+p c6rqyuVyAQAi1KceAIDRQ1QACCMqAIQRFQDCiAoAYUQFgDCiAkAYUQEgjKgAEEZUAAgjKgCEERUA wogKAGFEBYAwogJAGFEBIIyoABBGVAAIIyoAhBEVAMKICgBhRAWAMKICQBhRASCMqAAQRlQACCMq AIQRFQDCiAoAYUQFgDCiAkAYUQEgjKgAEEZUAAgjKgCEERUAwogKAGFEBYAwogJAGFEBIIyoABBG VAAIIyoAhBEVAMKICgBhRAWAMKICQBhRASCMqAAQRlQACCMqAIQRFQDCiAoAYUQFgDCiAkAYUQEg jKgAEEZUAAgjKgCEERUAwogKAGFEBYAwogJAGFEBIIyoABBGVAAIIyoAhBEVAMKICgBhRAWAMKIC QBhRASCMqAAQpiH1APAClMuFLXt6nth6aPOeI517jx7uLx3oHUo9VKSJbQ3jmotzO1rnTRmzePb4 OVPG1tWlngleCFGhNjy9u+eWh3fe8FDX44cGUs9SPaeOb7p8+fTXnzHzhKljU88Cf5C6crmcegZ4 Llt293z6jk3Xrt6TepCU3nfalA+8+sQ50kLmiQrZNVQavuGezVfdtWVw2Ku00Fhf97lXzXnHefMa ij4KJbtEhYzafajvvSsf+9bm7tSDZMsl89o/d9mSqeNbUg8Cz05UyKKte4688YuPPry/P/UgWXTG pObvXnH67CljUg8Cz0JUyJyte4684rMPbToyqi7rinXimIYfXbVcV8ggJ2fJlr3d/Zdcv0pRntum I0OXXL9qb7cjOTJHVMiQ0nD5Q19//IF9fakHqQEP7Ov70NcfL7mEgYwRFTLk6z99+sYNB1NPUTNu 3HDw6z99OvUU8FtEhazoOnD0ff/emXqKGvO+f+/cdfBo6ingN0SFrPjSjzoPDA6nnqLGHBgc/tI9 SkyGiAqZsOdQ3//4+TOpp6hJ//DzZ/Yc8ikUWSEqZMLdj+1y2/yxGRwu3/3YrtRTwK+ICplw0yMO U47dNx/pSj0C/IqokF537+AtW3tST1HDbt56uLt3MPUUUCiIClnw5PZDqUeoeb/c4UvSyARRIb3t +10UO1Lb9vWmHgEKBVEhC3YcEJWRsg3JCFEhvZ6+UuoRap5tSEaICukd7vP1kSNlG5IRokJ6blAZ OduQjBAVAMKICgBhRAWAMKICQBhRASCMqAAQRlQACCMqAIQRFQDCiAoAYUQFgDCiAkAYUQEgjKgA EEZUAAgjKgCEERUAwogKAGFEBYAwogJAGFEBIIyoABBGVAAIIyoAhBEVAMKICgBhRAWAMKICQBhR ASCMqAAQRlQACCMqAIQRFQDCiAoAYUQFgDCiAkAYUQEgjKgAEEZUAAgjKgCEERUAwogKAGFEBYAw ogJAGFEBIIyoABBGVAAIIyoAhBEVAMKICgBhRAWAMKICQBhRASCMqAAQRlQACCMqAIQRFQDCiAoA YUQFgDCiAkAYUQEgjKgAEEZUAAgjKgCEERUAwogKAGFEhfSaGupSj1DzbEMyQlRIr7WxmHqEmmcb khGiQnod45pSj1DzbEMyQlRIb+aEltQj1DzbkIwQFdKbO3VM6hFqnm1IRogK6c2f0T7G58wjMKah bv6M9tRTQKEgKmRBU2P9ikWTUk9Rw1YsmtTU6L1MJnghkgl/evr01CPUsDfYemSGqJAJf7J46vyx jamnqEnzxzaes3hq6ingV0SFTGhpLP7debNTT1GT/u682S1uUiEzRIWseNNZs18yyXWxL8xLJrW8 6SwxJkNEhaxoaSp+9s2LUk9RYz57yaKWJocpZIiokCFnntRx7fn+7/5DXXv+7DMXdqSeAn6LqJAt 775gwZWnTE49RQ1496mT333BgtRTwO8SFbKloVj3qUuXvG3BhNSDZNrbFkz45NuWNBTdMUrmiAqZ 09pUvOHyZe9Z4sTOs3vPko4bLl/W6qMUMqmuXC6nngGeRWm4fMPdm951x9OpB8mWL7z6hMvPP7FY 7xiFjBIVMm1N54EPfXv9PV29qQdJ77zpbZ9684uWzp2YehB4LqJC1g0ODd/+6M5/vvvpn+3tSz1L Gmd3tHz0/BNec/rMxgbnq8k6UaE2lIbLqzbvv331ru+v27fqYH/qcaph2YTmNyye/F+WTls2b5Lz XdQKUaH2dB04umNfb9fBvu6jQ0cHS30DpWNbp39o+IM/2hY727+84vjmYz2eaGkqtjYW21sbpk9o mTW5bfrE1tjZoApEhfzq7R8ac/WPY9c88k/ntjU3xK4JNcQpWgDCiAoAYUQFgDCiAkAYUQEgjKgA EEZUAAgjKgCEERUAwogKAGFEBYAwogJAGFEBIIyoABBGVAAIIyoAhBEVAMKICgBhRAWAMKICQBhR ASCMqAAQRlQACCMqAIQRFQDCiAoAYUQFgDCiAkAYUQEgjKgAEEZUAAgjKgCEERUAwogKAGFEBYAw ogJAGFEBIIyoABBGVAAIU1cul1PPwPMoDZc3dx1+YtuhLXuP/nLXkV09A3t6hw70lY6WhlOPVtuG y4XO3qHYNee2NdTXxS6ZO63F+oktxSltDdPGNp00bcycjtbFx4+fN31c0ZatBaKSXUOl8iOb9t36 aNdXHtuzs6+UehxIaWZL8S+XTLnw9OkvPnFyQ1FdsktUsqi3f+jWh3f8zx9uWds9kHoWyJZT2pv+ +yvnXHjGrLbmhtSz8CxEJVuGy+VbH9rxoVs3bjoSfFoGRpMTxzR86sL5Fy6fVV/nqCVbRCVDnt7d 89Fvrfv25u7Ug0BtePO89n++5OQTpo5NPQi/ISpZceeqZ/7rTesPDPrsHV6AiY3133jriy5YNiP1 IPyKqKQ3XC5/+gcbPnzvttSDQK365MuP/8DrFjoVlgWikthQafhj33rinx7alXoQqG1XL5/2D5cs bii69y4xUUlpqFT+8P997NrVe1IPAqPB+06b8sm3LXHBcVqqnky5UPj4v61XFIhy7eo9H/+39f5N TsuRSjJfvbfzL27dlHoKGG3+9cIT//zlc1NPkV+OVNJ4dNP+t/9AUSDe23+w6dFN+1NPkV+ikkB3 7+BlK9cOO0SEChguFy5buba7dzD1IDklKgl8/s6N63z/ClTMuu6Bz9+5MfUUOeUzlWpbv+3QyZ9+ KPUUMPqt+8DyFx0/PvUUueNIpdo+98PNqUeAXPBeS0JUquqpnd3Xrd2XegrIhevW7ntqp2/SqzZR qapvP7Aj9QiQI95x1Scq1dM/WPr8Q12pp4Ac+fxDXf2DfuCuqkSleh7ZuN8POEI17ewrPbLRPStV JSrV84AbsqDqvO+qTFSq565fenFDtXnfVZmoVMlQqfzDnb2pp4Dc+eHO3qGSu/GqR1SqZNfBoyX3 mULVlcrlXQePpp4iR0SlSroOeFlDGt591SQqVdLb77ovSMO7r5pEpUr6XCwPiXj3VVND6gHyoncg +GV9xeJJf33hwtg18+Zofyn8yz3XfWB5a3Mxds28+V+3bvjiE5GXbIW/+3gOolKrJrQ2njB1bOop altv/1D4mnOmjmlr9rYakQmtjalH4Ng5/QVAGFEBIIyoABBGVAAIIyoAhBEVAMKICgBhRAWAMKIC QBhRASCMqAAQRlQACCMqAIQRFQDCiAoAYUQFgDCiAkAYUQEgjKgAEEZUAAgjKgCEERUAwogKAGFE BYAwogJAGFEBIIyoABBGVAAIIyoAhBEVAMKICgBhRAWAMKICQBhRASCMqAAQRlQACCMqAIQRFQDC NKQeoAb09g/t7e7vHywNDA0f8yJb9vYGjlQoFHb3DDyx9eAx/3mxvq6lqdje1jhpbHPgVFUzVCrv 7e47OlDq7R865kWODpQCR/r/1m071NpUPOY/b2tuaG0qdrS3NBTrAqeqmv09/d29g30DpdJw+ZgX 2d0zEDhSoVDYsrd3JG+Wpob65sZiR3tzW7Md5vOrK5eP/bkfxboOHL1v/Z6fbTxw1+ZD67qDX+KZ Mr25eP7scS9bMPGPTupYdPz4LO/J+gZKv9iw9+dP7f/RxgP3dh0tjd6XbrGu7uXTW18xf+JZCya9 dGFHywgqVWnlQuHJbYfu/+Xenzx14O6th7v64zudHSe3N71q3viz508850VTpk9sTT1ORonKbymX Cw9s2HPdvVtu3HDs/9fUrj+e0vr+c2e/9oyZLY3Z2ovt2Ne78r4tn/zFM/sGjv1gsUZNbqr/8Etn XHbOnFmT21LP8lv6Bku3PbzjMz/e9h97jqaeJYEVCydc+fI5Zy6cUpflf8RSEJXf2LCj+2+/9+R3 OrtTD5LYKe1N//KnC84/bUYW3iw9Rwe/8MNN/+0n20dwNmU0qK8rfOJlx73rVfPHtqQ/A1MuFO5e /cwHv//U2lF9EP+HeNPc9n+8eNHCWe2pB8kQUSkUCoXScPlf7918+W2dqQfJkCtPmfzxtyyeMKYp 4QxrOg9cduPjjx/K+57r104d37RyxalL505MOMPBIwN/880nrlu7L+EMmVJfV7j+NXP/4uXzivVZ +DcsPVEp9PYPvW/lYzes2596kMxZNqH5u1csmzttbJJH//bPtr71uxtyfoDyn9XXFW5648I3nz07 yaN37up54xdXrTrYn+TRs+zykydde9kSn+QXRKW7d3DF9Y/evPVw6kEyam5bwy1/ddopcyZU+XG/ cOfGK+98usoPWkOuu+CEd10wv8oPunbLwdd/aXVn77Ffbje6XTR73I3vPL29rTH1IInl+j6V3v6h d3x5laI8h87eodd/afXmrqpuopU/7lSU53blnU+v/HFVz9Zu7jqsKM/t5q2H3/HlVSO5xn10yG9U yuXCX9+01sfyz6uzd+ji61cdiL514Pe557GuFbdsqs5j1bQVt2y657Gu6jzWgZ6Bi69fpSjP6zud 3VfftDbfZ39yHJVv3r/lc2v2pp6iNqw5OPDRqrxVtu/tvfQb6yv+MKPFpd9Yvz36ptr/rFwufPSm tWsOulziD/LZNXu/ef+W1FOklNOo7NzXe/ktG1NPUUtuWLf/jlU7K/oQ5ULhY99bP7rvnovV1V/6 2PfWV7r1d6za6TKWF+SKWzbt3Ffx2GdWTqNyzW1PHRnK9zHqC/f+7z9V0fPFP1276ytPHqjc+qPS V5488NO1uyq3fm//0FXff6py649K3UPD19yW342Wx6hs6jr8mdV7Uk9Rezb0DN784I4KLV4uF665 y31Cx+Kauzord2by5gd3bOwZrNTqo9dnVu/ZVN3LW7Ijj1H5+v3bUo9Qqz5x75bhyuzAVnfuv217 TyVWHvVu296zprMip6eGy+VP3JvrjwdGIrf7mdxFpX+w9IVHKni6YHRbc3BgTWdFzlDdtqpKFzKN Sj+ozNZb03nA5/PH7AuP7OofzOMHhLmLymNPH9zZl8dnOsp9T8ZfMlcuF766xgnJY/fVNXsqcQBZ iec6P3b2lR7fksfvpc1dVFY9ncenOdA9G+LPtGzZ0+PE/Uhs7Bncsif+5GElnutcebQzj3ub3EVl zXZ3O47IbduODJWC/yve3OXTlJEK34ZDpfJt247Erpk3+dzb5C4qT+zK7/XjIUrl8u5Dwb+fsW1f Hn+QI1b4Ntx9aDT/DFp15HNvk7uo/NL3qI9Y+Fe27DnsW29HKnwbVu2LeUaxfO5tchcVN2yPXP9g 8M8v9ubv9xzDhW/D8Gc5h/K5t8ldVBi5wVJ4VPL43osVvg3Dn2VyQlQACCMqAIQRFQDCiAoAYUQF gDCiAkAYUQEgjKgAEEZUAAgjKgCEERUAwogKAGFEBYAwogJAGFEBIIyoABBGVAAIIyoAhBEVAMKI CgBhRAWAMKICQBhRASCMqAAQRlQACCMqAIQRFQDCiAoAYUQFgDCiAkAYUQEgjKgAEEZUAAgjKgCE ERUAwogKAGFEBYAwogJAGFEBIIyoABBGVAAIIyoAhBEVAMKICgBhRAWAMKICQBhRASCMqAAQRlQA CCMqAIQRFQDCiAoAYUQFgDCiAkAYUQEgjKgAEEZUAAgjKgCEERUAwogKAGFEBYAwogJAGFEBIIyo ABBGVAAIIyoAhBEVAMKICi9YU0Pwy2ZcSzF2wRwK34bhzzI5kbvXzXGtDalHqHnNjcH7r9boBXMo fBuGP8s5lM+9Te6ismhCU+oRal5He3PsglPHBy+YQ9Oit2HHOE/KSOVzb5O7qJw6fUzqEWpbS7Fu cvTuZvbk1tgFc+j46G04ub25pVgXu2be5HNvk7uoLD2uPfUIte3iue3F+uB9zfwZ42IXzKHwbVis r7t4rjfLiORzb5O7qCybOyH1CLXtT+ZPDF9z5qS2F090suXYvXhi88xJbeHLVuK5zpXTc7m3yV1U Fs+esHBsY+opati5i6dWYtm3LavIsjlRoa1Xoec6JxaObTx5tqjkQLG+7sozZ6SeoladO61t4ayK HNG/dpkn5dhVaOstnNV+7rT4A6CcuPLMGeEnimtC7qJSKBTeevbxuXyuA3z4/DkV2nILZ7VfuiCP /9aN3KULJlSo9HWFwofPm1OJlUe9+rrCW88+PvUUaeQxKtMntv792TNTT1F7zupoeeXSCh5PfPCC eZVbfBT7UCW32ytPm3FWR0vl1h+t/v7smdMn5vSaxjxGpVAovOfV8+fk8r6kkfjUxSdV9C7rZfMm Xb18WuXWH5WuXj7ttHmTKrd+U0P9py4+qXLrj0pzWhve8+r5qadIJqdRmTCm6ctvWZR6ilrysbNm nLVoSqUf5SMXnnTq+DzeL3ZsTh3f9JELK77HP2vRlI+d5ROvF+DLb1k0YUx+X8Y5jUqhUDhvyfRP vOy41FPUhgtmjrn6omo0eOLYppUrTi3W+cjr+RXr6lauOHXi2GrsvK6+aNEFM/N4H98x+MTLjjtv yfTUU6SU36gUCoUPvu6kq5Z2pJ4i686c3PK1dy5raarSN0EtnTvxjhWLq/NYNe2OFYuXzq3SfSQt TcWvvXPZmZN9uPI8rlra8cHX5f1sYa6j0lCsu+bPlrxXV36/Mye3fOeK0zvaq7o3OX/p9NsvPdnx yu9TrKu7/dKTz19a1X+HO9pbvnPF6bryHN67tOOaP1vSkPvvtqkrl8upZ0hsqFS+5pYn/+a+HakH yZyLZo/7P+84bVKiLxa8f/3uN934RFd/KcmjZ9b05uJ3Viz+oxeluS1x/+H+t3959c1bDyd59Cz7 +DmzPvL6RYpSEJVfu2v1M3/+zSftwn7tmnOPu+o1C9P+qMb2vUfe87W1dmG/dtHscf/70lOO60j5 8cbA0PBnb9/wkR9vTzhDpkxvLn71LYtedZprGX5FVH5jb3ffZ27f+I8PdqUeJLGLZo/7+MUnZeQb JkrD5e/9YttHbtu85ehQ6llSmtPa8MnXznvDS4/PyE3a67YevPp7T96ytSf1IIn97Uumv/81C8J/ DKKmicrv2rK7Z+V9W697ZNfOvnwdtdTXFf7q5El/ec7slyzoyNrHGb39Qzc/uOOL92//ye6jqWep tnOntV3xR7Nev3xWW3O27qwqlwsPPrX3K/dt/dK6/cM524vMbCle+eJpl50ze87UsalnyRxReXZ9 g6VVm/Y/0nnwoS2HHu7qXdc9kHqiipjeXDx7Rttps8a9ZN7E5QsmTRqb6X+4yoXCxp3dD2868EDn wdU7e/5jT19pNL56i3V1fzyl5bSZY8+cO+GMEyfOn9mescT/rv09/Q89te/BzQdX7zj8s2d6R+s5 5JPbm86Y3rZ8zvgXz52w7MRJLX4Z8/cQlT/I4NDwwNBwb//oOQPT3Fhsaqyv6TdGuVw4OjDUN1Aq jZb/k4v1dS1NxdamhqwdKb4gfYOlgcHh/sHRk5a25oamhvrGpJ8v1hBRASCM9gIQRlQACCMqAIQR FQDCiAoAYUQFgDCiAkAYUQEgjKgAEEZUAAgjKgCEERUAwogKAGFEBYAwogJAGFEBIIyoABBGVAAI IyoAhBEVAMKICgBhRAWAMKICQBhRASCMqAAQRlQACCMqAIQRFQDCiAoAYUQFgDCiAkAYUQEgjKgA EEZUAAgjKgCEERUAwogKAGFEBYAwogJAGFEBIIyoABBGVAAIIyoAhBEVAMKICgBhRAWAMKICQBhR ASCMqAAQRlQACCMqAIQRFQDCiAoAYUQFgDCiAkAYUQEgjKgAEEZUAAgjKgCEERUAwogKAGFEBYAw ogJAGFEBIIyoABBGVAAIIyoAhBEVAMKICgBhRAWAMKICQBhRASCMqAAQRlQACCMqAIQRFQDCiAoA YUQFgDCiAkAYUQEgjKgAEEZUAAgjKgCEERUAwogKAGFEBYAwogJAGFEBIIyoABBGVAAIIyoAhBEV AMKICgBhRAWAMKICQBhRASCMqAAQRlQACCMqAIQRFQDCiAoAYUQFgDCiAkAYUQEgjKgAEEZUAAgj KgCEERUAwogKAGFEBYAwogJAGFEBIIyoABBGVAAIIyoAhBEVAMKICgBhRAWAMKICQBhRASCMqAAQ RlQACCMqAIQRFQDCiAoAYUQFgDCiAkAYUQEgjKgAEEZUAAgjKgCEERUAwogKAGFEBYAwogJAGFEB IIyoABBGVAAIIyoAhPl/ghxJEUTefnUAAAAASUVORK5CYII= "
           height="70.084747"
           width="70.084747" />
        <image
           y="644.46869"
           x="579.53668"
           id="image7503"
           xlink:href="data:image/png;base64,iVBORw0KGgoAAAANSUhEUgAAAhwAAAIcCAIAAAAynOArAAAAA3NCSVQICAjb4U/gAAAgAElEQVR4 nO3deZRcZZ3w8Vv72rX2vnd6ydJJOiELEIhECGYMu+LIoC8ODoygrxxkxjnqiEePvDqv5xVQBnFe FbcRdWCQLXlBEnYIJIGks6e70+l9q67q2veq+/7RnIAYst70c6vq+/mvczrhd+i+/e17n3ufq5Fl WQIAQAla0QMAAIoHUQEAKIaoAAAUQ1QAAIohKgAAxRAVAIBiiAoAQDFEBQCgGKICAFAMUQEAKIao AAAUQ1QAAIohKgAAxRAVAIBiiAoAQDFEBQCgGKICAFAMUQEAKIaoAAAUQ1QAAIohKgAAxRAVAIBi iAoAQDFEBQCgGKICAFAMUQEAKIaoAAAUQ1QAAIohKgAAxRAVAIBiiAoAQDFEBQCgGKICAFAMUQEA KIaoAAAUQ1QAAIohKgAAxRAVAIBiiAoAQDFEBQCgGKICAFAMUQEAKIaoAAAUQ1QAAIohKgAAxRAV AIBiiAoAQDFEBQCgGKICAFAMUQEAKIaoAAAUQ1QAAIohKgAAxRAVAIBiiAoAQDFEBQCgGKICAFAM UQEAKIaoAAAUQ1QAAIohKgAAxRAVAIBiiAoAQDFEBQCgGKICAFAMUQEAKIaoAAAUQ1QAAIohKgAA xRAVAIBiiAoAQDFEBQCgGKICAFAMUQEAKIaoAAAUQ1QAAIohKgAAxRAVAIBiiAoAQDFEBQCgGKIC AFAMUQEAKIaoAAAUQ1QAAIohKgAAxRAVAIBiiAoAQDFEBQCgGKICAFAMUQEAKIaoAAAUQ1QAAIoh KgAAxRAVAIBiiAoAQDFEBQCgGKICAFAMUQEAKIaoAAAUoxc9AKCkXF6OJjLRZDaRzsVT2XgqG0vl oslsLJWNJnOxVDaRyYcT2ZwshxPZbF4OJXOZfH4mmUtlZX8qe+zfORLLnuC/MqvV9t7h4zXpTXqN 26wzaLVOs06v1Tgsep1G47DoLQatzaS3m3U2k95u1ttMOqtJbzXpLUad3ay3Www6reac/L8ARNDI six6BuBURZPZYDTtj6SmIyl/JB2MZwKxtC+anopkJqLpgUimL5oRPeNpa7MbmssM1XZjZZmhwm70 2Iwuq8FbZiwvM3nLTC670W7mlz8UDKIC1Ummc1Oh5GQwOR5MjAWSY6HkSDA1FEy940/OZPKipxPA bdCe5zU3ukz1LlOt01zrMde4LFUuc4XTbDHqRE8H/AWiApFmoumxQHx4Oj7kTwz5E0f8iT2+xIFw WvRcBWORw7i0wtLqtTR6LY1eS73XWue1uu1G0XOhdBEVzJFcXh71x0f88QFfrH8qvn8itm0sNpg4 +dIFTleTRX9hra2z2jav0tpcYZstDSs3mBtEBedKMJYenIr1TUQPjkV2jUY2D0eTOb7ZxDDrNBsb 7MvryhbW2lur7M1VdpeNsxmcE0QFiglEUj1j4f0j4V1D4VeGIntDXMVSryVO40cay5Y3OhbVOTrq HN4yk+iJUCSICs5cNJntGwsfGou8PRjaeiS0K5gSPRHO0HKX6bJW53mNzoV1ZW21Du43wxkjKjg9 gUhq/1Bo59GZl/pmnhqKih4H58SVDfZL290rWlyLG10eTmJwOogKTm4ymOgeCO48Gvzz4cDLUwnR 42BOra20bOhwr2xxL2txVbksoseB2hEVHF88ld07ENzWF3hy3/RLk3HR40AV1lVZr+70XtjuWdrs tpq4RIbjICp4jyxJ/eORN3v9Ww76f9cbzOT53sDxGbSaz7S7LlvovaDd21pTxt3KOIaoQMrl5X2D wZcO+H6/e+otf1L0OCgwqz3mv1te+dFFFYubXDwNA6JSutLZ/M5e/5b9vt90T53K/onAibVY9Z9b VrG+s2JVW7nRwA7oJYqolJy8LO85OrNp98RPdk6OJXOix0ERqjXrbl9RdcXy6q4Wt1bDuUtpISol 5Mh45LnuiZ9vn+CBEsyNLpfx1tU1G7qq22rKRM+COUJUil8inXthz8TPXht5cigiehaUqKsb7bdc VL++q4ZtlYseUSlm/RORx7eP/nDb+ESKy1wQr9qk+8oFNdefXzevmhOXokVUilAuL79xyPcfLw/9 rjcoehbgOG5odX5xXdOahRXcLVZ8iEpRSWfzz3eP37t18IUJHleE2l1Safnq+ubLl9UY9dwqVjyI SpGIp7JP7Rj93tZB9gZGYVnsMH7jsqZrVtfxiH5xICoFL53NP7V95OvPHi3E17MDs1pt+u9/fN41 q+s5ayl0RKWA5fLylu6Jb206sj3AY/AoBis9pnuuaF3fVcNaS+EiKoVqR6//7id7nhuLiR4EUNjH am33XNOxqt0rehCcCaJSeCZmEj94pue+XT7RgwDn0B1d5V+/en61m832CwxRKSS5vPzf24Zve6pv JpMXPQtwzrkN2oeubr3+wkauhhUQolIwRqbjd/1h36P9YdGDAHPqk82O+2/srC+3iR4Ep4SoFABZ kp7eMfL3j/VwgoLS5DZof3V9x1Wr6jlhUT+ionbxVPZ//eng97ZPih4EEOxrK6vu/uRCHmdROaKi ahMziZsf3v3sKLd4AZIkSRtqbQ9/vqvWYxU9CD4UUVGvA8Oh6362u4dHGoH3abMbnrx12aIGp+hB cHxERaV29PqvfHjPFLsLA3+l0qR75vNLeZBFnYiKGu3o9X/0Z7tjWb40wPHZ9JoXb11GV1SIbXZU 58BQkKIAJxbLyh/92e4DQ7zcQXWIirqMBxLX/bybogAnFcvK1/28ezyQED0I/gJRUZF0Nn/7b/aw Mg+cop5o5vbf7ElneX5LRYiKivz0z328Rh44LU8ORR56rk/0FHgPUVGLQyOhr2wdEj0FUHjuemHo 0EhI9BR4F1FRBVmSvvtUT56VFOD05WXpu0/1cPSoBFFRhbf7/I/08asWcIYe6Qvt7PWLngKSRFRU 4pevcuELOCscRCpBVMSbiaZ/uo9fsoCz8h/7/TPRtOgpQFRU4I1DPlZTgLOUl6U3DvE6VPGIinjb j/JUMKAADiU1ICrivTPCsymAAjiU1ICoiLdzin0mAAVwKKkBURFvgv3tASVwKKkBUQEAKIaoAAAU Q1QAAIohKgAAxRAVAIBiiAoAQDFEBQCgGKICAFAMUQEAKIaoAAAUQ1QAAIohKgAAxRAVAIBiiAoA QDFEBQCgGKICAFAMUQEAKIaoAAAUQ1QAAIohKgAAxRAVAIBiiAoAQDFEBQCgGKICAFAMURFPqxE9 AVAUOJTUgKiIt9xlEj0CUAw4lNSAqIi3rNomegSgGHAoqQFREe+CFqfoEYBiwKGkBkRFvFWtHtEj AMVg5Ty36BFAVFRgSbNridMoegqgsC1xGpe2EBXxiIp4Wo3mzrX1oqcACtuda+u1Gm7/Eo+oqMIn zq+vNOlETwEUqkqT7hPn85uZKhAVVXDZjP92eZPoKYBC9W+XN7lsXENWBaKiFp9Z27yuyip6CqDw rKuyfmZts+gp8C6iohZGg/bBGzt1XBQGTodOo3nwxk6jgR9lasFXQkUWNTj/87o20VMAheS317Yt auDxFBUhKury6Yubvr2mRvQUQGH49pqaG9ayGKkuREVdNJL0r9ctvK3TK3oQQO1u6/T+63ULuV6s NkRFdfQ67Y9u6qIrwAnc1un90U1deh0/wVSHL4kaGQ3aH32u66srKkUPAqjRP6+o/NFNXSzOq5NG lmXRM+D48rL8wObeO7cOiR4EUJH7Lmu8Y2M7D8+rFlFRu//3ztgNfzgUzuZFDwIIZtNrHr1h4cfP qxU9CE6EqBSAvvHILb/e8/JUQvQggDCXVFp+/rmlbTVlogfBSRCVwhBPZe/b1PPN18ZEDwII8N2L au+6ssNq0oseBCdHVArJm4d9X/zjoV3BlOhBgDmy3GX6979dsGZBhehBcKqISoGJp7IPPtv3tVdG 8nzdUOz+9yX1X9rQZjNzglJIiEpB6h0Lf+tPh/9wJCR6EOCcuKHV+Z1r53fUOUQPgtNGVAqVLEsv 75v89qY+FvBRTNZWWr5zReu6xdXcM1ygiEphy+bkze+MfnNz/95QWvQswFlZ7DDes3HeFSvq9Dp6 UsCISjFIZnKPbRv+zpbBvmhG9CzAaWu16b+9vun6NY1mA+8/LXhEpXgkM7nNb4/9YOvgW/6k6FmA U7LaY/6Xy5quWFlLTooGUSk22Zz80r6J+7cObhqJip4F+FAb6+13Xtr00SXVXOwqMkSlOMmytKs/ 8Mi2kft3+XJ8iaEaWo30leWVN1xQt6LVy1J8USIqRW46nNr09tgDr428PcMjkxBpuct0x9q6K1fU ljvMomfBOURUSkIuL2/vmf6v7WM/3TudzPEVx9wx6zRfWFL+t6tqz59frtNyblL8iEppCcczrx6Y +q+d47/pCYqeBUXus+2uT6+q+ciiSofVIHoWzB2iUqImg4kteyZ/v3OC9Xwoa2O9/e9WVq9fUlXt toieBQIQlVI3Hki8fsj3zN6p3/YE2U8MZ0arkT7b7rpyaeVFC8prPVbR40AkooJ3BWPpt3qmn93r ++0Bvz/NO8Fwcm6D9qZO798srrhgfrnLZhQ9DlSBqOCDMtn8geHQm73+Zw/6nxiMiB4HqnNtU9mG hd4L270LG5xGPS+Kx18gKjiRYCy9qz/wek/g6YOB7QEe1C9dKz2mqxZ4L+7wLJ/ncds5KcGHIio4 VZPBxL6h0DtHg1t6Z/48FhM9Ds659TXWyzs8K1pcnQ1OVt1xioiKeIl0zmIssI2PgrH0gaHQrsHg 9oHQpoEwazDFwWvUfrzJcUGLc1mTs7PRVXDLJIV4KBUfoiLe2u+//tCNnYubXKIHOUO5vDzkix0a De8bDr9+NPTMcJSNYQqFTqO5ssG+psW5pMExv7asqdJeuM8n7hsM3v7I/le/fpHoQUodURFPc9cW SZIeuLzplvXzimCv1lQmd3QyemQyengs2j0a2TIUGUvmRA+Fd9Wadesby7rqyubX2lur7C1VdlPh f8slM7mfb+n/8vODkiTJ964XPU6pIyrizUZFkqSLKyz3fWrByjav2HmUJUvSVDAxMBnrnYgcGIvu GY+9NBGLZfmumws2vWZdtW1pjW1Rrb29uqy5ylbptBTZNo47+/xfefTQa753339KVIQjKuIdi8qs u8+vvnNju6fMJGqecy0vy75Qcng6Pjwd7/fFD03GdoxFu4O8ufJsdbmMq2rtC6ps8yqsDeXWeq+1 wmku3MtZJxWIpO7f3Pvdtybe/4dERTiiIt4HoiJJUrVJd+/Geddf2GAomYcAkpmcL5ScmEmOBxNj geRQINE7ndg1FT8Sy4oeTXVabfrlldb2ckujx1LrMde4LNVuc4XTXATXTk9RJpt/bNvwXZv7J1If vLJKVIQjKuL9dVRmrauyfveqtosWVRbtr5qnIJ7KzkTT0+FUIJryhdNT4dREKDUcTB4NproDqXC2 OO86c+i1XR5Ti8vU4DJXO02VDlOFw+ixm8odJrfdaDXpRQ8ojCxJrx+Yuvvpvpcm48f/BKIiGlER 78OiMuuGVuc3rmxfUrD3hp1TyUwuHM9E4plwIhOOZ4LxTCCaDsYzM/FMOJkLJbLBZNafyI7FMgPx nNh70nQaTbNVV2szeC16l1nvtOgdZp3banBZDR670WU1OKwGh8VQZjU4rIbSOec4LXsHg997pvcP R0In+ByiIhxREe/EUZn15a7yL18+r73WMQfzFKtUJpdI59KZfDydzeflRDqXz8vxdC6XlxPpXDYn JzPvXUuJJDLv/7uzR8kHlrjLLO/t6G426PQ6jcWo02k1VqNOq9VYjDqtVmM16o0GrcWoK4KbrATq HQs/8Hz/A93TJ/1MoiIcURHvVKIy646u8i+tn9dRR1pQKnpGww9u6f/xKeRkFlERrnQvzhaiH3dP /7h7+h8Wer54afPyVk8pr7WguMmStOtI4CcvDPziYED0LDg9RKXw/OJg4BcHA59oLvviuqZLOiv1 ulK5QwylIJvLv7x/6icvDT4+wA7ZBYmoFKrHByKP/2pfl8v4Tx9puGpVXcFt0wR8QDCWfnrH6A9f GeahpYLGmop4p76m8mHMOs0/raj69AV1i5vdXBNDYZElad/AzB/fHP3h25PJ3Nn+OGJNRTiiIt7Z R+WYy6qt/3hR/fquKo+9aB/IR9EIRFNbuif/7+sjWyeO/9DJGSAqwhEV8RSMyiydRvOlpd7rV9We 31HOi/mgNuls/q2e6cd2jD24x6/4w0NERTjWVIpQTpZn7xOrNetuX1G1cVl1V4u7iPeAQkHI5eXu ozObd0889PYkG1cXMc5UxFP8TOWvLSgz3Hxe1eVLKpc0ubhbDHMpm8vvHQw+v3fql+9MHopkTv4X zg5nKsIRFfHmICrHtFj1Ny+vvHRR+fJ5nlLeQgrnWjyV3dUfeOHA9C93TR2Nz92uoERFOKIi3lxG 5RizTnPzQs+GxRUrWz11XuvcD4CiNOqP7zwSeG6f75cHA2d/K9cZICrC8btqiUrm5If2+R/a55ck 6Xyv+dpO74VtnmUtbifPu+A0hWLp3UdntvUFntjvf8ufFD0OBCMqkN7yJ996ZVR6ZVSSpGubyjYs 8K5u83Q2OtkDER8mlcntHwpt7ws8d8j/xCCPvuM9RAV/4YnByBODEem5AYNW86l5jjXzXF2NzkUN ziJ+EyVOUSCSOjAc6h4KvdEffLQ/nMlz5RzHQVRwfJm8/Ehf6JG+d99dsabcvL7dvaLZ2dngbK60 c4NyKcjl5YGp6P7h0NsDoS29M29Mc2kLJ0dUcEremE6+MT0ubRuXJKnapNvQXLa83tFZX9ZaXdZY YaMxxSGXl4d8sSMTkf0jkV0j4ecGIn/9vl7gxIgKTttEKvfrw8FfHw7OfmjTazY2lq1udCysLeuo LWussLEYUyhSmdyQL9YzFjk4Ftk+FN48FIlluaiFs0JUcLZiWfnR/vCj/eHZD7Ua6aIKy8o6+4Jq e2uVrbnCVldu5f24apDM5Ean4wO+2JHJ2KGJ6M7R6Ou+BCsjUBZRgcLysvTqVOLVqYQk+Y794cUV lvNqbQur7S2V1lq3pdpt8TpMWg0Xzc6VvCz7w6mJmcTYTOLoVPzgRPSdsdhrvoTouVD8iArmwmu+ xGu+hPS+l8La9JoLKyydVbbWCkuDx1Lnsda4zRVOM5fOTlcqk/OFkuMzydFAfDiQOOJL7J+MbfMl uJAFIYgKxIhl5S3j8S3jH9zzvM1u6PSYm9ymBre52mWucpgqHKYKp9lbZjIbS7c3yXTOH0n5Qklf ODUZTk0Ek8MzycGZ1P5Asi96zjfUAk4dUYG69EUzfdGMNHSc5+kqTbr5TmODw1hpN1Y7jF670W0z eOxGp9XotBocVoPNrLeY9IV1TU2WpEQqG0tmw/FMKJ4JxdOBaHomlvFH0xPh9FQ0PRxOHw6lp7gL CwWCqKBgTKVyU1MJaeokCwNNFn2tTV9h1XssBpdF77TonRa9w6I36bUWo16v09jNep1GYzHpDDqt yaA1GXR6ncZi1L1/jceg1574VTTpbD6TzR/7MC/LiXQum5NTmVwqk8/k8olULifL0WQ2m5MT6Wwq mw8nsqFENpTIBhPZQCLji2fHYtnBxNxttgjMAaKCYjOY4Cc1IAyv1hCv0lS6SwWAgjiU1ICoiLe6 0iJ6BKAYcCipAVER77z6MtEjAMWAQ0kNiIp4q1tcokcAigGHkhoQFfEuXFDOfozAWdJqpAvnl4ue AkRFBTx20xc6vaKnAArbFzq9vPVHDYiKKty8tlH0CEBh4yBSCaKiCivbvTe2OUVPARSqG9ucK9s5 3VcFoqIKGkm6++oOVlaAM6DVSHdf3cHRoxJERS0W1DvvvZTzd+C03Xtp44J6TvTVgqioyO0b2q5p 5EZ74DRc01h2+4Y20VPgPURFRYx67UM3Le2wG0QPAhSGDrvhJzctOfHWn5hjfDHUpcZj+dMtXbYC 274dEMCm1/zplq5aj1X0IPgLREV1FjW6Xrx1GV0BTsCm17x467JFjTxCrzpERY1WtXtfvHUZW64C x1Vp0r1467JV3EOsShpZ5kXWKnVgOHTdz3b38LJY4H3a7IYnb+niHEW1iIqqjQXin3+4+7mxmOhB AFXYUGt7+POso6gaUVG7eCp7z+MHv79jUvQggGBfW1l19ycXWk28r1bViEoBkCXp6R0jf/9Yz0wm f/LPBoqO26D91fUdV62q5/YV9SMqBWNkOn7XH/Y92h8WPQgwpz7Z7Lj/xs76cpvoQXBKiEohyeXl /942fNtTfZyyoBS4DdqHrm69/sJGHfviFQ6iUngmZhI/eKbnvl0+0YMA59AdXeVfv3p+tZvXzhcY olKodvT6736yhxvDUHw+Vmu755oOHkMpUESlgOXy8pbuiW9tOrI9kBQ9C6CAlR7TPVe0ru+q4XpX 4SIqBS+dzT+1feTrzx7t4zFJFKxWm/77H593zep6docsdESlSMRT2ad2jH5v6+DeUFr0LMBpWOww fuOypmtW1/EASnEgKkUlnc0/3z3+f7YMvjQZFz0LcBKXVFq+ur758mU1nJ0UE6JShHJ5+Y1Dvp++ NPhIX0j0LMBx3NDq/OK6pjULK1g7KT5EpZj1T0Qe3z76w23jE6mc6FkAqdqk+8oFNdefXzevmjec Fi2iUvwS6dzWPRM/f23kyaGI6FlQoq5ssP/jxfWXLa1m4aToEZUS0jceea574hfbJ3YFU6JnQUno chlvXV3zsaVV7bUO0bNgjhCVkpOX5T1HZzbtnvjJzsmxJJfFoLxas+62FVVXLq/uanFrNayalBai UrrSmfyOvukt+32/3u07Gs+KHgcFr8Wqv6mrYn1nxap2r8nAe0tLFFGBlMvL+waDLx7w/X7XFA/n 43St9JhuXFb50UUVi5vceh3nJaWOqOA9siQdGY+82evfetD/u95gJs/3Bo5Pp9F8tsN52XzvBR3e tloHJcExRAXHF09l9wzMbOsNPLXfz6OUmHVJpeXqzvI1HZ6lzW7u48JxERWc3GQwsftocEf/zJ97 Z16dSogeB3NqbaXl8nb36nmurmY3G9HjpIgKTk8gkto3FHz7aPCF3plnhqOix8E5cUW9/bIO93nN rsVNLm+ZSfQ4KCRERbwnt49cvbogX74dTWb7xsIHRyPvDIW2Hgnx+EvhWu4yXTrPuaLJuaCurL3W YTcX3qUtWZKe2j5yzep60YOUOqIinuauLV/o9Hz3+kUVTrPoWc5KIJI6PBo+MBreNRR+ZSjCfslq tsRp/Ehj2fJGx6I6R0edo9BPR3yh5N2PHfiP/QH53vWiZyl1REU8zV1bJElqsugfuLbtypX1RfOs WDCWHpiMHpmMHhyL7hqNbB6OJnN8s4lh1mk2NtiX15UtqLG3Vdubq+wum1H0UMqQZemZnSNffqJv MJGVJImoCEdUxJuNyqwb25zf/9SixgqbwHnOkVxeHvXHh6djg9Px/qn4/onYtrHY7A8CKKvJor+w 1rao2javwtpcYW0ot9V5rUW5H/CQL/b1Rw+8fzduoiIcURHv/VGRJMmg1dy3vvHv17XYCvC69uma iaZH/fGh6fiwPz4cSPZOx3dPJXp4heUp67AbllVa2sutDR5zg9faWG6t81rd9iI5CzmBWDL7q5eO fmXL0AeepiIqwhEV8T4QlVmLHcb/c03b5ctqSnDrpEQ65wslJ2YS48Hk2ExiPJQankkNBFPdgeRM Ji96OgHcBm2Xx9zsMjW4TTVOU63bUuMyV7stFU6zxVhyu6HkZfn53eP//GTfvvBxFu2IinBERbzj RmXW1Y32b17RvqrdO5fzqFk0mZ2JpvzhlD+ano6kgrGMP5aZjqZ90cxEND0QyfQV4FlOm93QXGao thsr7IZyu9FrM7hshvIyk9du9DpMbrupEO/FOkd29Prv2dT71NCH3stOVIQjKuKdICqz/mGh5182 tnXUsXn4yeXyciSRiSWz8VQ2nsol0tlYKhdNZmOpbDSZiyaziUwuksxl83Ikmc3m5VAyl8nnZ5K5 VFb2p95b4DkSO/liT6vtvZ/1XpPepNe4zTqDVus06/RaTZlZr9dqysw6i0FnN+vtZp3NpLeb9TaT zmLUW006q0lvM+vLLIaiXO1QXM9o+Aeb+35xMHDiTyMqwhEV8U4alVl3dJX/z8vn8V4KIWYPEn72 C9E7Fv735/t/3D19Kp9MVITjtLpg/Lh7+sfd01/uKr91XfOSJpfocUoLORFi72DwZy8NPHBqOYFK EJUC80D39APd059pd/3PS5vO76govVV8FD9Zlt7q8f37C4O/6w2KngWnjagUpN/1Bn/XG1xXZb3z o40fW1ZTgrcAoSgl0rk/7x6//8UhNsYuXKypiHeKayofpt6i/5eLa69dVddQXoSPTKJEDE/Hntgx +oPXxkbO7nlY1lSEIyrinWVUjvn8Avf/uLD+ooUVBr1WkX8QONcy2fzrB32/3Tby8KEZRf5BoiIc l7+Kx8OHZh4+NNNq03/p/Jorz6vhPjGoWe9Y+Jl3xh98a/xU7t5GAeFMRTylzlQ+4G/qbP9jdc1l S6qqXLxYCWoxGUxs3Tv52+3jz47GzsW/z5mKcERFvHMUlWM+0+765PKqtYsqyx2Fvb05Ctd0OPXq gan/3jV5rm/oIirCcfmr+M3eKiZJhz/b7rpqaeVHFlXwUljMjYmZxCsHfE/vmfpPbg4uGZypiHeu z1T+2hX19muWVlw8v3x+vaMEN6zEOZWX5cMj4dcOTz+5x7dpZK5fOM2ZinCcqZSiTSPRTSNRafPR RQ7jJxd5Lu7wnjfPXe4o7PdOQqzpcPKd/pnXevyP7vcfihTetp5QClEpaQfC6QNvTkhvTkiStL7G esWi8gva3Eua3KXwKhecvVgyu3dw5s2+mU0HpreM87giJImo4Jgt4/Et40PS1iGdRvPpVsdl873L ml0ddQ72Xcf7RZPZntHw7oHg1sP+Px4J57h+jr/Ezwt8UE6WH+kLHQS50U8AABgoSURBVHtF68Z6 +7pW1/Jm56J6Z43XygpMqZEladwfPzAS2jUQeulIcPOcL5OgsBAVnMTmkejmkaj08ogkSQvKDBvb XatbXAtqHS1VdofVIHo6nBPheOboZPTQWHj70eDm3iBrJDh1RAWn4VAkc+gdn/SOb/bDNeXmNU2O rgbH/Jqy1hq7x85zMIUqEE0dGY8eHo90D4ffGAy/MZ0UPREKFVHBmXtjOvnGdFJ6e2r2w8UO46Ut jiV1ZS2VtuYKW1251Wxg+2Q1SmZyo9PxAV/s6FRs72jkhaPh477vHTgDRAWK2RdO7+uelt73SqW1 lZaVdfYF1fZ5lbamCmt9uY1d+udeIp0bmY4N+uL9U7FDE9Gdo9FXpxKih0LRIio4h16dSrw6lZAk 37E/WekxLa20tlVYm8otdW5LrcdS47bYLazNKCOayIzPJMYCidGZxOB0os8X3zMV3xlIiZ4LJYSo YE7tDKR2BlLSX+5z3mLVr6y2zq+wNngsVU5TpcNU7jB5HSaXzcgD/38tL8vBWNofTk2HU1Ph1GQo NRxIHPbFd07Ej8bZ8ReCERWIdzSePdoflvrDH/hzg1az0mNq95ibPOZal7ncbnTbjW6b0WE1uGxG h9VgLNI3x6Sz+XA8E4ylw/HMTCw9E01PR9NjweRgINkbSO4MpDJ5ng6BShEVqFcmL2+bTm778DuR qk26BS5TncNYaTdU2I1Oi77MrLeb9Xaz3mbW20x6m1lvNelsJr3VpBf77rJMNh9PZWOpbDyViyWz sVQ2lsxGk9loMhtJZkOJrC+anopmRsPpQ8HURConcFTgbBAVFLCJVG5iMi6d8vvMa806i05TazMY tBq3WW/Sa+xGndWoM+m1dpNOp33vUptJrzUbThShZCafyuaPfZjLy9FULpXNx9O5aDqXysozyWwm L4/FMomcPJYkEigVREU8rUbiYsbcmP3hzqsGi5WWBTgVKM5L0oVluYtnBgEFcCipAVERb1m1TfQI QDHgUFIDoiLeBS1O0SMAxYBDSQ2IinirWj2iRwCKwcp5btEjgKiowJJm1xKnUfQUQGFb4jQubSEq 4hEV8bQazZ1r60VPARS2O9fWs/+CGhAVVfjE+fWVJnZaBM5QpUn3ifP5zUwViIoquGzGf7u8SfQU QKH6t8ubXDauIasCUVGLz6xtXldlFT0FUHjWVVk/s7ZZ9BR4F1FRC6NB++CNnTouCgOnQ6fRPHhj p/GEe+pgLvGVUJFFDc7/vK5N9BRAIfnttW2LGng8RUWIirp8+uKmb6+pET0FUBi+vabmhrUsRqoL UVEXjST963ULb+v0ih4EULvbOr3/et1CrherDVFRHb1O+6ObuugKcAK3dXp/dFOXXsdPMNXhS6JG RoP2R5/r+uqKStGDAGr0zysqf3RTF4vz6qSRZV7loVJ5WX5gc++dW4dEDwKoyH2XNd6xsZ2H51WL qKjd/3tn7IY/HAq/7yWDQGmy6TWP3rDw4+fVih4EJ0JUCkDfeOSWX+95eSohehBAmEsqLT//3NK2 mjLRg+AkiEphiKey923q+eZrY6IHAQT47kW1d13ZYTXx+vMCQFQKyZuHfV/846FdwZToQYA5stxl +ve/XbBmQYXoQXCqiEqBiaeyDz7b97VXRvJ83VDs/vcl9V/a0GYzc4JSSIhKQeodC3/rT4f/cCQk ehDgnLih1fmda+d31DlED4LTRlQKlSxLL++b/PamPhbwUUzWVlq+c0XrusXV3DNcoIhKYcvm5M3v jH5zc//eUFr0LMBZWeww3rNx3hUr6vQ6elLAiEoxSGZyj20b/s6Wwb5oRvQswGlrtem/vb7p+jWN ZgPvPy14RKV4JDO5zW+P/WDr4Fv+pOhZgFOy2mP+l8uarlhZS06KBlEpNtmc/NK+ifu3Dm4aiYqe BfhQG+vtd17a9NEl1VzsKjJEpTjJsrSrP/DItpH7d/lyfImhGlqN9JXllTdcULei1ctSfFEiKkVu Opza9PbYA6+NvD3DI5MQabnLdMfauitX1JY7zKJnwTlEVEpCLi9v75n+r+1jP907nczxFcfcMes0 X1hS/reras+fX67Tcm5S/IhKaQnHM68emPqvneO/6QmKngVF7rPtrk+vqvnIokqH1SB6FswdolKi JoOJLXsmf79zgvV8KGtjvf3vVlavX1JV7baIngUCEJVSNx5IvH7I98zeqd/2BNlPDGdGq5E+2+66 cmnlRQvKaz1W0eNAJKKCdwVj6bd6pp/d6/vtAb8/zTvBcHJug/amTu/fLK64YH65y2YUPQ5Ugajg gzLZ/IHh0Ju9/mcP+p8YjIgeB6pzbVPZhoXeC9u9CxucRj0visdfICo4kWAsvas/8HpP4OmDge0B HtQvXSs9pqsWeC/u8Cyf53HbOSnBhyIqOFWTwcS+odA7R4Nbemf+PBYTPQ7OufU11ss7PCtaXJ0N TlbdcYqIiniJdM5iLLCNj4Kx9IGh0K7B4PaB0KaBMGswxcFr1H68yXFBi3NZk7Oz0VVwyySFeCgV H6Ii3trvv/7QjZ2Lm1yiBzlDubw85IsdGg3vGw6/fjT0zHCUjWEKhU6jubLBvqbFuaTBMb+2rKnS XrjPJ+4bDN7+yP5Xv36R6EFKHVERT3PXFkmSHri86Zb184pgr9ZUJnd0MnpkMnp4LNo9GtkyFBlL 5kQPhXfVmnXrG8u66srm19pbq+wtVXZT4X/LJTO5n2/p//Lzg5IkyfeuFz1OqSMq4s1GRZKkiyss 931qwco2r9h5lCVL0lQwMTAZ652IHBiL7hmPvTQRi2X5rpsLNr1mXbVtaY1tUa29vbqsucpW6bQU 2TaOO/v8X3n00Gu+d99/SlSEIyriHYvKrLvPr75zY7unzCRqnnMtL8u+UHJ4Oj48He/3xQ9NxnaM RbuDvLnybHW5jKtq7QuqbPMqrA3l1nqvtcJpLtzLWScViKTu39z73bcm3v+HREU4oiLeB6IiSVK1 SXfvxnnXX9hgKJmHAJKZnC+UnJhJjgcTY4HkUCDRO53YNRU/EsuKHk11Wm365ZXW9nJLo8dS6zHX uCzVbnOF01wE105PUSabf2zb8F2b+ydSH7yySlSEIyri/XVUZq2rsn73qraLFlUW7a+apyCeys5E 09PhVCCa8oXTU+HURCg1HEweDaa6A6lwtjjvOnPotV0eU4vL1OAyVztNlQ5ThcPosZvKHSa33Wg1 6UUPKIwsSa8fmLr76b6XJuPH/wSiIhpREe/DojLrhlbnN65sX1Kw94adU8lMLhzPROKZcCITjmeC 8Uwgmg7GMzPxTDiZCyWywWTWn8iOxTID8ZzYe9J0Gk2zVVdrM3gtepdZ77ToHWad22pwWQ0eu9Fl NTisBofFUGY1OKyG0jnnOC17B4Pfe6b3D0dCJ/gcoiIcURHvxFGZ9eWu8i9fPq+91jEH8xSrVCaX SOfSmXw8nc3n5UQ6l8/L8XQul5cT6Vw2Jycz711LiSQy7/+7s0fJB5a4yyzv7ehuNuj0Oo3FqNNp NVajTqvVWIw6rVZjNeqNBq3FqCuCm6wE6h0LP/B8/wPd0yf9TKIiHFER71SiMuuOrvIvrZ/XUUda UCp6RsMPbun/8SnkZBZREa50L84Woh93T/+4e/ofFnq+eGnz8lZPKa+1oLjJkrTrSOAnLwz84mBA 9Cw4PUSl8PziYOAXBwOfaC774rqmSzor9bpSuUMMpSCby7+8f+onLw0+PsAO2QWJqBSqxwcij/9q X5fL+E8fabhqVV3BbdMEfEAwln56x+gPXxnmoaWCxpqKeKe+pvJhzDrNP62o+vQFdYub3VwTQ2GR JWnfwMwf3xz94duTydzZ/jhiTUU4oiLe2UflmMuqrf94Uf36riqPvWgfyEfRCERTW7on/+/rI1sn jv/QyRkgKsIRFfEUjMosnUbzpaXe61fVnt9Rzov5oDbpbP6tnunHdow9uMev+MNDREU41lSKUE6W Z+8TqzXrbl9RtXFZdVeLu4j3gEJByOXl7qMzm3dPPPT2JBtXFzHOVMRT/Ezlry0oM9x8XtXlSyqX NLm4WwxzKZvL7x0MPr936pfvTB6KZE7+F84OZyrCERXx5iAqx7RY9Tcvr7x0UfnyeZ5S3kIK51o8 ld3VH3jhwPQvd00djc/drqBERTiiIt5cRuUYs05z80LPhsUVK1s9dV7r3A+AojTqj+88Enhun++X BwNnfyvXGSAqwvG7aolK5uSH9vkf2ueXJOl8r/naTu+FbZ5lLW4nz7vgNIVi6d1HZ7b1BZ7Y73/L nxQ9DgQjKpDe8iffemVUemVUkqRrm8o2LPCubvN0NjrZAxEfJpXJ7R8Kbe8LPHfI/8Qgj77jPUQF f+GJwcgTgxHpuQGDVvOpeY4181xdjc5FDc4ifhMlTlEgkjowHOoeCr3RH3y0P5zJc+Ucx0FUcHyZ vPxIX+iRvnffXbGm3Ly+3b2i2dnZ4GyutHODcinI5eWBqej+4dDbA6EtvTNvTHNpCydHVHBK3phO vjE9Lm0blySp2qTb0Fy2vN7RWV/WWl3WWGGjMcUhl5eHfLEjE5H9I5FdI+HnBiJ//b5e4MSICk7b RCr368PBXx8Ozn5o02s2NpatbnQsrC3rqC1rrLCxGFMoUpnckC/WMxY5OBbZPhTePBSJZbmohbNC VHC2Yln50f7wo/3h2Q+1GumiCsvKOvuCantrla25wlZXbuX9uGqQzORGp+MDvtiRydihiejO0ejr vgQrI1AWUYHC8rL06lTi1amEJPmO/eHFFZbzam0Lq+0tldZat6XabfE6TFoNF83Olbws+8OpiZnE 2Ezi6FT84ET0nbHYa76E6LlQ/IgK5sJrvsRrvoT0vpfC2vSaCyssnVW21gpLg8dS57HWuM0VTjOX zk5XKpPzhZLjM8nRQHw4kDjiS+yfjG3zJbiQBSGICsSIZeUt4/Et4x/c87zNbuj0mJvcpga3udpl rnKYKhymCqfZW2YyG0u3N8l0zh9J+UJJXzg1GU5NBJPDM8nBmdT+QLIves431AJOHVGBuvRFM33R jDR0nOfpKk26+U5jg8NYaTdWO4xeu9FtM3jsRqfV6LQaHFaDzay3mPSFdU1NlqREKhtLZsPxTCie CcXTgWh6JpbxR9MT4fRUND0cTh8Opae4CwsFgqigYEylclNTCWnqJAsDTRZ9rU1fYdV7LAaXRe+0 6J0WvcOiN+m1FqNer9PYzXqdRmMx6Qw6rcmgNRl0ep3GYtS9f43HoNee+FU06Ww+k80f+zAvy4l0 LpuTU5lcKpPP5PKJVC4ny9FkNpuTE+lsKpsPJ7KhRDaUyAYT2UAi44tnx2LZwcTcbbYIzAGigmIz mOAnNSAMr9YQr9pUuksFgII4lNSAqIi3stIiegSgGHAoqQFREe+8+jLRIwDFgENJDYiKeKtbXKJH AIoBh5IaEBXx1iyoYD9G4CxpNdKaBRWipwBRUQG33XjbYq/oKYDC9oVOr9vOe0vFIyqqcPPaRtEj AIWNg0gliIoqrGjz3tjmFD0FUKhubHOubOd0XxWIiipoJOnuqztYWQHOgFYj3X11B0ePShAVtVhQ 77zvMs7fgdN276WNC+o50VcLoqIit32s7ZpGbrQHTsM1jWW3b2gTPQXeQ1RUxKjXPnTT0g67QfQg QGHosBseumnpibf+xBzji6EuNR7Ln27pshXY9u2AADa95k+3dNV42JpFXYiK6ixqdL146zK6ApyA Ta958dZlixp5hF51iIoarWr3vnjrskq2XAWOp9Kke/HWZau4h1iVNLLMi6xV6sBw6Lqf7e7hZbHA +7TZDU/eumxRA7d7qRRRUbWJmcTND+9+djQmehBAFTbU2h7+fFetxyp6EHwooqJ28VT2f/3p4Pe2 T4oeBBDsayur7v7kQquJ99WqGlEpALIkPb1j5O8f65nJ5E/+2UDRcRu0v7q+46pV9dy+on5EpWCM TMfv+sO+R/vDogcB5tQnmx3339hZX24TPQhOCVEpJLm8/N/bhm97qo9TFpQCt0H70NWt11/YqGNf vMJBVArPxEziB8/03LfLJ3oQ4By6o6v861fPr3bzbGOBISqFakev/+4ne54b48YwFJuP1druuaaD x1AKFFEpYLm8vKV74lubjmwPJEXPAihgpcd0zxWt67tquN5VuIhKwUtn809tH/n6s0f7eEwSBavV pv/+x+dds7qe3SELHVEpEvFU9qkdo9/bOrg3lBY9C3AaFjuM37is6ZrVdTyAUhyISlFJZ/PPd4/f u3XwhYm46FmAk7ik0vLV9c2XL6vh7KSYEJUilMvLbxzy/cfLQ7/rDYqeBTiOG1qdX1zXtGZhBWsn xYeoFLP+icjj20d/uG18IpUTPQsgVZt0X7mg5vrz6+ZV84bTokVUil8inXthz8TPXht5cigiehaU qKsb7bdcVL++q8Zi5IUORY6olJAj45Hnuid+vn1iVzAlehaUhC6X8dbVNRu6qttqODUpFUSl5ORl ec/RmU27J36yc3IsyWUxKK/WrLt9RdUVy6u7WtxaDasmpYWolK50Nr+z179lv+833VNHYlnR46Dg tVj1n1tWsb6zYlVbudHADV0liqhAyuXlfYPBlw74fr976i0/D+fj9Kz2mP9ueeVHF1UsbnJxNxeI Ct4jS1L/eOTNXv+Wg/7f9QYzeb43cHwGreYz7a7LFnovaPe21pRREhxDVHB88VR270BwW1/gyX3T L03yKCUkSZLWVVmv7vRe2O5Z2uzmAXgcF1HByU0GE90DwZ1Hg38+HHh5KiF6HMyptZWWDR3ulS3u ZS2uKhcb0eMkiApOTyCS2j8U2nl05qW+maeGoqLHwTlxZYP90nb3ihbX4kaXp8wkehwUEqKCMxdN ZvvGwofGIm8PhrYeCfH4S+Fa7jJd1uo8r9G5sK6srdZhN3NpC2eIqEAxgUiqZyy8fyS8ayj8ylCE /ZLVbInT+JHGsuWNjkV1jo46h5fTESiEqOBcCcbSg1OxvonowbHIrtHI5uFoMsc3mxhmnWZjg315 XdnCWntrlb25yu6yGUUPheJEVDBHcnl51B8f8ccHfLH+qfj+idi2sdhggoculddk0V9Ya+usts2r tDZX2Oq91jqvlSdIMDeICkSaiabHAvHh6fiQPzHkTxzxJ/b4EgfCXDc7VYscxqUVllavpdFrafRa ZvvhtnMWAmGIClQnmc5NhZKTweR4MDEWSI6FkiPB1FAw9Y4/OZPJi55OALdBe57X3Ogy1btMtU5z rcdc47JUucwVTjOb/kJtiAoKSTSZDUbT/khqOpLyR9LBeCYQS/ui6alIZiKaHohk+qIZ0TOetja7 obnMUG03VpYZKuxGj83oshq8ZcbyMpO3zOSyG7kXCwWEqKCo5PJyNJGJJrOJdC6eysZT2VgqF01m Y6lsNJmLpbKJTD6cyOZkOZzIZvNyKJnL5PMzyVwqK/tT7y3wnMoOm622937We016k17jNusMWq3T rNNrNQ6LXqfROCx6i0FrM+ntZp3NpLeb9TaTzmrSW016i1FnN+vtFgOrHSgmRAUAoBi2pwYAKIao AAAUQ1QAAIohKgAAxRAVAIBiiAoAQDFEBQCgGKICAFAMUQEAKIaoAAAUQ1QAAIohKgAAxRAVAIBi iAoAQDFEBQCgGKICAFAMUQEAKIaoAAAUQ1QAAIohKgAAxRAVAIBiiAoAQDFEBQCgGKICAFAMUQEA KIaoAAAUQ1QAAIohKgAAxRAVAIBiiAoAQDFEBQCgGKICAFAMUQEAKIaoAAAUQ1QAAIohKgAAxRAV AIBiiAoAQDFEBQCgGKICAFAMUQEAKIaoAAAUQ1QAAIohKgAAxRAVAIBiiAoAQDFEBQCgGKICAFAM UQEAKIaoAAAUQ1QAAIohKgAAxRAVAIBiiAoAQDFEBQCgGKICAFAMUQEAKIaoAAAUQ1QAAIohKgAA xRAVAIBiiAoAQDFEBQCgGKICAFAMUQEAKIaoAAAUQ1QAAIohKgAAxRAVAIBiiAoAQDFEBQCgGKIC AFAMUQEAKIaoAAAUQ1QAAIohKgAAxRAVAIBiiAoAQDFEBQCgGKICAFAMUQEAKIaoAAAUQ1QAAIoh KgAAxRAVAIBiiAoAQDFEBQCgGKICAFAMUQEAKIaoAAAUQ1QAAIohKgAAxRAVAIBiiAoAQDFEBQCg GKICAFAMUQEAKIaoAAAUQ1QAAIohKgAAxRAVAIBiiAoAQDFEBQCgGKICAFAMUQEAKIaoAAAUQ1QA AIohKgAAxRAVAIBiiAoAQDH/H1K1ZT/ls7UvAAAAAElFTkSuQmCC "
           height="74.99881"
           width="74.99881" />
        <image
           y="646.10675"
           x="484.79608"
           id="image8413"
           xlink:href="data:image/png;base64,iVBORw0KGgoAAAANSUhEUgAAAhwAAAIcCAIAAAAynOArAAAAA3NCSVQICAjb4U/gAAAgAElEQVR4 nO3dd2BV9eH//3Nz7824GWTchCRkEEIwJEDYCEKRIVhHcWBVlOFCRUWtba1aP7W22qF1C2pVFIoC LlxVVCyydxghQEII2XuQ5N7s3O8f9mfVH0JI3ve+z3nf5+PPNt68SHLP657zXiaXy6UBACCCj+wA AAB1UCoAAGEoFQCAMJQKAEAYSgUAIAylAgAQhlIBAAhDqQAAhKFUAADCUCoAAGEoFQCAMJQKAEAY SgUAIAylAgAQhlIBAAhDqQAAhKFUAADCUCoAAGEoFQCAMJQKAEAYSgUAIAylAgAQhlIBAAhDqQAA hKFUAADCUCoAAGEoFQCAMJQKAEAYSgUAIAylAgAQhlIBAAhDqQAAhKFUAADCUCoAAGEoFQCAMJQK AEAYSgUAIAylAgAQhlIBAAhDqQAAhKFUAADCUCoAAGEoFQCAMJQKAEAYSgUAIAylAgAQhlIBAAhD qQAAhKFUAADCUCoAAGEoFQCAMJQKAEAYSgUAIAylAgAQhlIBAAhDqQAAhKFUAADCUCoAAGEoFQCA MJQKAEAYSgUAIAylAgAQhlIBAAhDqQAAhKFUAADCUCoAAGEoFQCAMJQKAEAYSgUAIAylAgAQhlIB AAhDqQAAhKFUAADCUCoAAGEoFQCAMJQKAEAYSgUAIAylAgAQhlIBAAhDqQAAhKFUAADCUCoAAGEo FQCAMJQKAEAYSgUAIAylAgAQhlIBAAhDqQAAhKFUAADCUCoAAGEoFQCAMJQKAEAYSgUAIAylAgAQ hlIBAAhDqQAAhKFUAADCUCoAAGEoFQCAMBbZAQDxymqbP91bujmv7lBVc11rp+w4PxBiNadG+E89 J/zikbEx4QGy4wCCmVwul+wMgDAuTXvj6+O3/ju/vUvvf9g+Ju35CxJvnp7sa+GBAdRBqUApz3ya c+/6QtkpzsJt6RHPzsvwtdIrUAR/ylDHnmM1xmoUTdNeOlSz9ItjslMAwlAqUMeT647LjtAT931d VNPYKjsFIAalAkWU1zWvyjspO0VPdLpcW49UyU4BiEGpQBG782plR+i53HKH7AiAGJQKFLHzeJ3s CD13uIJSgSIoFSjisxwDl0pmGaUCRVAqUEF1Q+vuWgOPde+pa3W2dshOAQhAqUAFuaUNsiP0Vllt s+wIgACUClSQXWL4UimqdsqOAAhAqUAFmYWGL5UCSgVKoFSggq1FTbIj9NaxSsbqoQJKBYbX1NKR WW/gUfpvZTOrGEqgVGB4BZWGv03RNO2bUgebu0IBlAoM74QSD45q2rpqGltkpwB6i1KB4eWUq3Cn omlaSQ2zimF4lAoM75Aqy9ELqhX5h8CbUSowvG+KGmVHEINZxVAApQJjq21qPdbULjuFGEfYqxjG R6nA2IoV+nS/T5XnePBmlAqMTaXdTbZWt7S1d8lOAfQKpQJjK6xRp1Q0TSutU+qfAy9EqcDY8qqU moar0tM8eCdKBcZ2SK3dTZgABqOjVGBgXS7XpgqlrsLHq5T658ALUSowsOqGVkeHUhtmZZUpsjsA vBalgh9rbutsajHG0bbqnZa4o8wwdyot7Z0NznalKh0iWGQHgF50dLo2ZFW8trloVd5JTdOSbJbr htqvGR+XnhAqO9pPKlZr6pemaQXNHXVNbWFBvrKD/KTc0oYVmwtXZ9XkNLVrmhZi8ZmXFj7n3H7n pkaaZGeDHphcbLcNTcs8Xvu7949+UXqKQe97R0T+/vLU8CA/z6c6o6XrchetK5CdQrCDd48ekqjH Ine5tOUb8hd8nHfK/3fBOWF/uyY9qo+/h1NBb3j85e2a2zr/9F72yBf2nrJRNE17OrNq/N+3782r 9XCw7lBsPvG39Hn71eBsX/zmvp9qFE3T3jhaN/mpHbmlhj/XGb1EqXi1oyUNM5/a/n9bSk//ZTlN 7WOW7F2xIV9vt7WHK/V4/e2l/CrdTZLOLqyf9tT2Fw5Un/7LjjS2n//CnoMn6jyTCvpEqXivT/eU jHp216bKbn3Y73Jp8z7Ku2f5Pl2N4W9Taz7xt3L11JQuTXt7U8GwZ/fsru3Wgc2lLZ3jl+zdcfQM 9QOFUSreqKOz6+8fHrlk5eGznY/73P7qnz+9I69MF1vN1zva6lTcKWu/braVbGxuv3f5/jkf5Hae zS2qo8N13iv71x8od18w6Bml4nWamttvfS3z/m+Ke/afb65qHvn0rnWZZ3hi5gFVJ9U8fPebiuaO TvnPGY8Un7zgqR3P7qvqwX/b6XJNfyNr7Y4i4amgf5SKdymva5794u7Xj/TqqXdDR9eFK7L/8sHh tg6ZNwrl9WqWSqfLVS51W0mXpq3ZUjjsmd07anr1E7589dHlG/JFpYJRUCpeJLe04YJnd637iVle Z+vBTSXXLtlVUS9t/lVZnZqlokk9rL6ppeM3/zpw9Xs57V0C7pbmf5T3/Gc58m+74EGUirfYn183 8fk9WQ1tAl/z/RONE5/auTNHzqhsSZ2C84m/dULSYfU5JQ0zn9r+j72VAl9z8ZeFT354pEtvEwfh NpSKV9hyuPK8pXsrWzuFv/KxpvZxL+17/evjnr9qnJD3cd7d8j2+raRL097bVpTxzK6t1eLv/377 TfGf3zush4EieAClor7P9pZOfvWgWzdevOmT43e9sa/B6dGz4nOqlS2VI57dz9/R0vHgWwdnv3O0 xW3X/T9sLX1g1UF6xRtQKopbu6Poon9ln9WU0J5ZcrBmxtMeXVC9o3srbIxoW4nnSuVYWePFz+z4 6+4Kd3+jJ/dULn5zH+clK49SUdmaLYWXrz7qsW+3o6ZlxDO7Ptld4oHvpeoilW/lNLU3Nbv9ts+l aR/uLB7+9M5vPFXPS7NqbluW6WzV0fpZCEepKOuN/xy/+r0cD39TR4fr0rcO//HdQ63t4sdvvk/V RSrfcfcOYM7WjodXZV226oiHD6RZdqRu4ev76BWFUSpqem193g0fH5f13R/ZWvbLF3e59bATVRep fMetpXK8vPHSZ3c+tlPOoveVufU3v5rp4RE4eAyloqDX1ufd/KnkRWcfFTaN/8eObUd6sh77jFya drRUF1vFuM/BogY3DYR9srtkxFO7vi6Xub7y7byT817ZS68oifNUVKOHRvm+ly7sf/P0ZLOPmAOc 8iuavs6qWLGr3GPDABKNDfe/YWz0BUP7JscEC3nBlrbOx9ce/tN2vezKNSshePnCkSE2q+wgEIlS UYreGuVbC9PC/3btkNDAnp9mWN3Q8vm+8pW7yj734LQo/ZgWbZs3Nmbm8Oi+oQE9fpETlU23vHng K50dV3xRXNCKW0aEB+vxCDj0DKWiDn02yrdGhfmtWDBscHyfs/qvOrtcO3OqV+8sfX5/lYhNQwzv tvSIa8bFTkiNtFrO7sH1Z3tLr1t9RJ/z5aZF29bcPopeUQaloojXvz5+0yfSRua7w99senv2oFnj 4rvzIKy2sfWDncXPbi45eFLkvjJqGBhkvXt87BXj+sWG2874xS3tnX//8OgftsrfVfo0pkXb3r9z DM/B1ECpqGDNlkLPzx7umd+Pi37o8sH+vuaf+oK88saVm4v+sqPMfau7lXHP8Mj5E+MzBoT/VE8X VjluXX7AEM8MGV9RBqVieAZqlG9dFBf08rxhcfYffMp2adqunOqXNhQs6922/F7oorigu85PmJ4R YzH/oFy+2Fc2Z9XhmjY9PvI6JXpFDZSKsX20q3jW20dkpzhrsf7mVdenT0qL0jTNpWk7c6qfXHf8 3XzPbfGinvF2//un9//5yFhfi09re+c/Psl5aJMntjYQi15RAKViYF/tL7/gzSzZKXruhRmJo5PC nvyCOhEmI9T315PjV++t+KSoSXaWHrqyf8jyW0fa/Cyyg6CHKBWj2nK4cvKrBz2wUyTgYdelhL5+ 80hfK0uzDYlfmyHtOVYzcxmNAjWtzK2/e/l+uYdVo8coFeM5WFB/0WsHPLwPIOBJLx2qeWh1Fuev GBGlYjB5ZY2z/rnPHWc4Arry5J7Kxz7IplUMh1IxkvK65stezsx3sm04vMIjW8teWpcrOwXODqVi GCcdbde+kpnVwApzeJFF6wre21YkOwXOAqViDK3tnbcs27ehQl+7AQIeMPudoxsOuv20Y4hCqRhA l8v10OpD7xxnMQe81CUrsg4V1stOgW6hVAxgyefH/rG3UnYKQBpHh2v2a/vL69Q/REcBlIrercss vevLAtkpAMmONLbfwOH2RkCp6NqR4pNXvn1YdgpAFz4vcTywKoslvzpHqehXvaNtzusscgT+57n9 1Ss36vQkOnyLUtGpLpfrwdWHMutbZQcB9GXBR8cPnuB8BP2iVHTqvW1FS7NqZKcAdKfT5bruzYMN znbZQXBqlIoeVTe03vlxnuwUgE4dPNn2wrpjslPg1CgVPXp3WxG7ewGn8fi20pY23iN6RKnojsul vbKjTHYKQNccHa7cskbZKXAKlIru1DW1Mj4PnFFdE28TPaJUdIczJIDuYMGKPlEquhMe7Bvhy+8F OIPIPv6yI+AUuHjpjsXsc+NQu+wUgK5F+5lTYoJlp8ApUCp6dMuU/rIjALp2/8R+VguXLz3it6JH KbEhT06Jl50C0KnkQMuC8/vLToFTo1R06q4LU67sHyI7BaBHy65NCw30lZ0Cp0ap6JSv1eelBcOG 9uGdA/zAE+fHTUqLkp0CP4lS0S97iP+qG4YFWkyygwB6MSshePFFg2SnwOlQKrqWlhD6zjWDZacA dCHW37xk7lBfxuf1jV+P3v18ZOxTUxm0B7SVc9JiI2yyU+AMKBUDWHzRoIVp4bJTADL9bXLc+UP6 yk6BM6NUDMDsY3piztBJUQGygwByXNk/5J6LGUoxBkrFGEJs1hU3ZkT7mWUHATxtYJB1ybxhDKUY Bb8nw0iMCnpv/hDZKQCP8jFpq+YNiQplmy/DoFSMZEJq5GsXD5CdAvCcNy5NHjUwQnYKnAVKxWAW TE26cxjbTcIrLM6wXz85SXYKnB1KxWB8TKa/XJ3OoD2UNzkq4LGrh5hY+2s0lIrxBAVY37whgzNX oLAwq8+yGzKC/C2yg+CscWEypKS+Qe9clyY7BeAua+akJfUNkp0CPUGpGNWUodHPXZAgOwUg3pNT 4qdnRMtOgR6iVAzs9hkpN6SGyU4BiHRtcp+7L0qRnQI9R6kYmMVseuq6oSNC/WQHAcRIC/F9bu4w i5nrkoHxyzO20EDf5fOHmpkiA+Mzm0xvzR9qD+FDkrFRKoY3JDF0xWUDZacAemvFZQMzknica3iU igqumZR49/BI2SmAnvvNqKhrJiXKTgEBKBUVmDTtT1eljbezPxIMaVq07ZHZaTzDVQOloojgAOsb 84f5m3ljwmCi/Myv35Bh82OdoyIoFXUM6hfy9mzOnIDBrL4uLSEyUHYKCEOpKGXWuPjfjIqSnQLo rqemxnOeo2IoFaWYNO3/rhg8LoLBFRjArITgOy5knaNqKBXVBAVYX71+CCtXoHOx/uYlc4dynqN6 +I0qaEhi6CsXcwoFdG3lnLTYCJvsFBCPUlHT/POTrk8JlZ0COLW/T45jKEVVlIqazD6mf1w7JDGA aZrQnUvig+6+iGmKyqJUlBUV6v/Slbx1oTs3nxfna+XKoyx+tSo7XNooOwLwY0s2FrlcskPAbSgV ZVU3tD68sVh2CuDHvih1bD5cKTsF3IVn7sr65/rjjg4+EPZERqhvWkSAPcgabrOG2qy+39v8xqVp dY72uub2WkfHsdqW3bUtLZ38kM/a3z4/PnFwFPPelWRycSOqovK65oTHtrZ38cs9s6F9fGckh45I CEnuGxgXYYsOC+j+IVFdLldtY1tRteNEpSOrpHFz/skvSh1uTauMjTcPm5TG7g8K4k5FTa9+nU+j nEasv3n+UPt5g8JHDQiPDgvo8ev4mEz2ED97iN+IAeGXa5qmaY3N7QdP1G/NrXk/q3pbdYuowOr5 +7rjE9OiuFdRD3cqCqpuaIl9dAul8v8X4euzeHT0hcOihg8Id/dabpemHSttWJ9V+cr2ssz6Vrd+ L4Pac8fIkcnhslNAMO5UFPTutmIa5Ucujgu6fXL8lCF9PbbFuknTUmJDUmJDbpmevDevduW24mf3 VXnmWxvF6xsLKBX1cKeiGmdrxzmPbi5u7pAdRC8WpoXfOqX/iORw6U9aiqudq7YWPrK5hAkU3yl8 cHy8nX3vlUKpqObdrYVXvZsjO4Uu3Jga9qsLk9MT9LVdTXld87INJx7eXNrJW0/T/j457jezUmWn gEiUilI6u1wTHt+ys9bbx4cnRQX8ddagCYMjZQf5SYVVjsc+PPpKdq3sIJKFWX1O/GFSiM0qOwiE YfGjUnYfq/HyRrH6mF67eMBXvx6v50bRNC0hMvDlm0duvGnYkBBf2VlkqmvvWrevTHYKiESpKGXN zhLZEWS6on9wzm/H3ThtgFFO6ZiUHrXt/vF/GB8jO4hML28u5mmJSnj8pY6axta+j2z22if1S2Ym 3jI9ufvrFnVlQ1bFgrcPF3jr9Iqse0brbegLPWbIdyBOad2+Mu9slORAy47bht8+M8WgjaJp2vlD +m7/9bjLEoNlB5Hj/V2lsiNAGKO+CfEjLk17aYs3Pvu6KC5o073jxg6yyw7SW9FhAasWjX743GjZ QSR4eme5o8VL79LUQ6ko4lhpw6bKZtkpPO32IRHv3DE6Jrzn+6zoip/V/MdfDll26QDZQTytrr1r Yzb7FiuCUlHE+iyve08+el7sc/OHe2yFvGeYNG3BlAHr5qWbvWwL34/3VciOADEoFRW4NG3F7nLZ KTzqqanxv78yzWJW88o7Y3jMhpuGBlrU/Ned0iuHausdbbJTQABKRQXHShu2etOGuC9d2P+eS85R +4o7MS3qP7cM955e6XS5NvEETAmUilG1tneeqGzanF25cuOJRz/0on1Znpoav3DGQG+41o5JiVh/ U4b3PAdbm8kTMBWwTsUAulyu6pOtxTXOohpnfpUzp8Kxr9zhnWd1PDap3wOXD/aWq6ymaZq24WDF lGUHZafwBB+Tdscw+zl9A/tH2hLsgbHhARHBfrJD4axRKrrT2NxeUuMsrnGeqHLmVTqzKhz/KXOw r62maXcOsz89N0PVcZTTWLOl8Or3vOhm9Dux/ubzYgPTowOTowIT7ba4CFtseICf1Sw7F06HUpGp raOrvK65uMZZUOXMr3YeLndsL3Mca2qXnUuPZiUEv3X7KMXmenXfUx8fve8/RbJT6MIEu//wmMDU 6MBEuy3RHtgvIiAixN/rPmjoGKXiIS6XVt3QUlrbXFDtKKh2Hi137C93bq1u5jCt7hgYZN1079je nPtrdB2drlte3fvG0TrZQfQoys88KSYwra9tYN/ABLstwW6LDbf5+3JDIwel4hZNLR2lNc6iGmdB tTOv0nGo3LmxzFHX3iU7lyH5mLRdizh3Vqt3tE1/aseeOk4m7pax4f4jYmzn9A0cEBUYH2GLs9vs IX4+XjPrQSJKRZjswvovD1buK27cXtp0pJFHWMK8clHSLdOTZafQhQMn6kY8v4e7254JsfhMiQ1M j7al9P3vCE2/CJvXPlB1H0pFgJa2zkffy/7LLiZEinfVgJC3bh/jhYPzP+WfX+Ut/He+7BTqyAj1 nZwYMnWwfeaIGH+mAIhAqfRWR2fXwtcylx3hYbd4IRafQ78dF8cZ5t/T0dl12bM7Py1ukh1ENRmh vm/OHZqRFCY7iOGx+LG3Xvkyj0ZxkxcvTqJRfsRi9vnH1Wk+3LmJtr++7byle/fmefsBz71HqfRK aY1z8ZeFslOoaUZs4DUTE2Wn0KNz+oU8OSVedgoFOTpc1y0/2OBkQLRXKJVeeX9niXeei+UBf541 yLiHbrnbTVMHJAcywizekcb2lZtOyE5hbLxpe+XDrCrZEdR0x9CIMSkRslPoV4jN+veLmRHnFv/Y XNLFJ8VeoFR6ZbP3nYvlGXfP5Ip5BpeM7jcqjK2xxMtzdBRVOWSnMDBKpVdaOvlEI97iDHtKbIjs FHrna/F5eGaS7BRqqm3iZJeeo1SgO7dO5VrZLT8fGZsW4is7hYLaOtj8oucoFejLtcl90uL7yE5h DL4Wn99MjpOdAvgBSgX6svBnCbIjGMmsMXFWFq1ATygV6EhigGVCaqTsFEYSFuS7eDg/MegIpQId uevcGF8rf5Nn56oxsbIjAP/DGxg6MmNolOwIxjNqYHhcAAshoReUCvRiaB/f9MRQ2SmMx2L2uZEn YNANSgV6MScjkjOUemZ6OqUCvaBUoBfjB3r72Y49NjwpjClg0AlKBXoxYgCl0kPBAdYrk9iDALpA qUAXZsQGhtisslMY2KRkhqOgC5QKdGFiEqvoeyUjgR8gdIFSgS5kJPD0pldSYvgBQhcoFehCUlSQ 7AjG1jfMP4x1o9AB/gqhC/F2m+wIxuZjMk3tRzFDPkoF8kX7mUMD2cK9t86JCpAdAaBUoAPD7f6y I6ggLowfI+SjVCBfip2P2AJEhVAqkI9SgXwRgaxQESAiiEeIkI9SgXyhAZSKAEHsVQwdoFQgXyhr 6UUI8DXLjgBQKtABM3+GItj8uFOBfLybIZ/Vwt+hAJwbAD3gzQz5fLlVAVTBmxnyOVo7ZEcAIAal Aiiipa1TdgSAUoEOOFq5GgrQ2t4lOwJAqUAH6p3tsiOooKmFHyPko1QgX42Dq6EADc0MTUE+SgXy lZxslR1BBZX8GKEDlArkO1zdIjuCCkrr+TFCPkoF8mXWt7Z3MMjcWwW1zbIjAJQK9KGk1ik7guHt LHHIjgBQKtCHgkouiL3S1NKRWc+YCuSjVKALOeVNsiMYW355o+wIgKZRKtCJHfknZUcwtuziBtkR AE2jVKATnx4/2dnlkp3CwHYX0MrQBUoFulDe2plTwmftHupyuT44Uis7BaBplAr0Y3cel8Ueyi1t zHOwnB66QKlAL9YdrpEdwai25/Cjg15QKtCLlbn11Q1Miu2JdzIrZEcA/otSgY5szK6UHcF4Smuc nxYzIRt6QalAR97eVSY7gvF8to8fGnSEUoGOvJvfkF/Bh+6z0NnlWrq1VHYK4H8oFejLBztLZEcw kl251XvqGIiCjlAq0JfHt5Q0NnNmV3e98k2h7AjAD1Aq0Jeatq61O4plpzCG3NKGZUfqZKcAfoBS 6ZVoP7PsCAr64/oCZytL+c7shS+Py46gJrOPSXYEA6NUemV6QrDsCArKc3S8v71Idgq9yy1teG5/ tewUagoN9JUdwcAolV6ZlRElO4KaHviioN7RJjuFfrk07S+f5MpOoaYoP3P/qEDZKQyMUumVn4+M TQ22yk6hoOLmjqVf5MlOoV9bsisZTXGTe8ZGW8xcGHuOn12vBPpb/nn1YNkp1PT7zSVH2bf4VJrb On+7Nkd2CjWFWX1uOL+/7BTGRqn01sS0qA+uPsdsYmRPsC6Xdt/q7I7OLtlBdOeVL/O2VbfITqGm N2cPig4LkJ3C2CgVAS4bF5917+hb08NlB1HNp8VNy785ITuFvmQXnfzV16xNcYvlv0i+dEyc7BSG Z3K5OG5PmKaWjmOlDQXVzsIaZ06F82C5Y1NVM+cZ9obZZDp4z+jB8X1kB9EFR0vHjKe2b+U2RSiz yXRzWtiiaUnD+ofJzqICSsW9Ojq7yuuaS2qai2udeZXO3CrnnlJHZj37apyFiZEBn907LsjfIjuI fA+vzvrzjnLZKYwtzOrzs5jA9GjbwKjARLst3m6LswcG+LLgTBhKRYKWts7SWmdJTXNBjfNElTO7 3LGrwnmsib1JftLiDPvT8zJ8vHvg6v3tRVeuOSo7hcFMsPtnRAemRgcm2m2JdltshC0yxN+7/47c jlLRiwZne2mts7imubDGmVfpyK5wbipz1LQxTP1fr1084MZpA2SnkCaroH7k83vaeZb605JslnEx genRgUmRtv6Rtn4Rttgwm6+VYWNPo1T0y6VpNQ2tZbXOoprmgmrHsSrngTLH5srmlk4v/ZV9OX/I 9Ixo2SkkKKlxnv/sLu5lv2P1MU3uG5AREzQwypYUaYuPsMVG2FgGrxOUisF0drmqTrYUVTtLap35 Vc7cSuf+coeXjNwGWkxbbh+ZkeRdo6n1jrZfPL9rU2Wz7CDSDO3jOzY2aFCULTkqMD4iIM5u6xsa wPZcukWpqGDputxF6wpkp/CEaD/zxrtGpcSGyA7iIY3N7XNf3vthYaPsIB4S4eszKSYwvW/gwL62 RLstLsLWL8Jm82OOhpFQKirILjqZ/vQu2Sk8JMlmWX/X6KS+QbKDuJ2ztWPh6/tW5tbLDuIhfxgf 84fZ6YyiGx2jWCpIjQsZ2sdbHijnOzsueGF3bqniO7g0Nbd7VaNomnb56FgaRQGUigp8TKa5w71o v+Q8R8fMJXsPFSp7wT3paLv+5b1e1Shjw/1Ze6gGSkURU9MjZUfwqHxnx6QX9245XCk7iHilNc5Z z+/ynnGUb91ybgy3KWqgVBSRkRQ2KMi7NuGva++a+M8D72xVaiOs7ML6Kc/u+sb75npdODxGdgSI QakowmL2ueNcb3xb/vLdnP9bk9Xa3ik7iAAf7iwe/tyeHO9bj3Jtcp84u012CohBqajj0lGxsiPI 8aft5Ve/uLu42iE7SM85WzseeefQZauOeOea+QXnsTewOigVdST1Dbqif7DsFHJ8WNg4/Mkdn+4p MeIl+UjxyQuf3vHHbWWyg8iRGGCZnO5F00yUR6koZf74frIjSFPT1nXJysN3vJ5ZUW+YAYmW9s4l n+cOeXq3Ny+Yv29irJ+VTYLVweJHpTQ2tyf9cZOXb0MZ5Wd+9uIBV5wb72vR9Wem7UerfvtBjjfX ybcKHxwfbw+UnQLC6Ppdh7MVHGD93QQvHVn5TmVr57Xv5854ctumQ5X6/MiUX9F0+2uZ41/eT6Pc NDicRlEMdyqqKa52xj++VXYKvbiif/BvL0wem2LXyRqI/Iqml9fn/whb48QAABHGSURBVG13hewg erF1Ycb4VO9aYqU8SkVB9yzf/+y+KtkpdGRmbODiKYnThvWV9eze5dIyj9e+vrHgxYM1UgLo0/QY 2xe/nqCTvocolIqC9ufXDX9+j+wUupMYYLlzXPQvRsWm9Avx2HWs6mTLuv3lr24t8cL1jGf0yZzB F4/23qklqqJU1HT5szvWFnjXPh/dN8HuP3dU9Hmp9sFxIRaz+GFFl6YVVTm259S8l1m+5rjiG1/2 WFqIb+ZDEzmZUT2Uipo2ZVf+7NUDslPoXZSf+ZrUsHEDQtPj+iRHBwUF9Hyfm/aOrhOVTYdLGjIL Tn6QXbO/vk1gTiWtmJV8/eQk2SkgHqWiJpdL++ULO9/N52PyWRgR6jeuX9DAKFtMqF/fPv59bNYg f4u/r9nmZ/nucVlzW2dbR1djc3tTc0dlQ0tpfUthbcu+0qb/lDd38lbqtuRAy4HfT+T0LSVRKsra kVN97kv7ZKcATmHl5QPnTOovOwXcggeayho7yD47yVuO3YWBpIX4XnFuvOwUcBdKRVkmTfvdz5Nl pwB+7PqMSH/2ZVEXpaIyne9TAu/06NZS5U+D9mZcdJRV72ibvzxLdgrgx1o6XQtXZDlbO2QHgVtQ KmpyubSH38nOrG+VHQQ4hQ0Vzic+Pio7BdyCUlHTqs0FLxyolp0C+EmPbC1bf6BcdgqIR6koKLuw fu7aY7JTAGcwb9Xh8jp2r1ENpaKaBmf7/OUHWYgH/Stt6bx75cGOTq8+/kc9lIpSulyuh9Yc2l3L UAqMYc3xhuc/y5WdAiJRKkpZseEEQykwll99XbTxEAfMqINSUceu3JoFH+fJTgGctWtXZpfUOGWn gBiUiiIq6pvnrGBVCgyptKXztuUHWts7ZQeBAJSKCtrauxYtP3CsqV12EKCHPilqeuIjVq6ogFJR wRMfH3n/BEdywdge3lK6LrNMdgr0FqVieJ/uKfn95lLZKQABrl11+Hg5H4+MjVIxttzShqtXH5Gd AhCjrr1r/rIDTc08yDUwSsXAGpztc5cdcHSwzhHq2FzVfP+qrC5W7xoWpWJUXS7X/W9n7ahpkR0E EGzJwZplXx+XnQI9RKkY1Wvrj790qEZ2CsAtbv40f9uRKtkp0BOUiiFtP1q18N/5slMAbvTLFYeK q1kRaTyUivGU1jqvWn5IdgrAvYqbO255c39LGysiDYZSMZiW9s5b3zxQ3MypeVDf5yWOP76bzZC9 sVAqBvP4B4c/KWqSnQLwkL/urli1qUB2CpwFSsVI1u4o+tN2DsuDd7l+be6uXOakGAalYhiHi05e +26O7BSAp3W5tKveOFjKNsYGQakYQ72j7bplB1o6ebwMb1TQ3HHDsv3OVoYSDYBSMYAul+vB1Ycy 6znPEd7ri1LHQ6sPsdJe/ygVA3hr44mlWTxThrd7Zl8VK+31j1LRu4Mn6hZ8xBsJ0DRNu/nT/E3Z lbJT4HQoFV2rd7TNX57VyS0/8P+ZveLQiUpm1esXpaJfLpf28DvZDKUA31fZ2jn3tf0NTrbH1ylK Rb/e3Vb4woFq2SkA3dlc1fzwO4e4f9cnSkWnqhtabv/omOwUgE49t7/6q32cPaxHlIpOvbu9uKat S3YKQL8e/ew4o406RKno1OpMprgAp7O5qvl4BQfa6w6lokdt7V0bKtiUAjiDY2WUiu5QKnrU3MZ2 FMCZNXPaiv5QKnpk87PIjgAYQGigr+wI+DFKRY+sFp+L4oJkpwD0Lj2+j+wI+DFKRaeuyIiUHQHQ tcUZ9sg+/rJT4McoFZ26fGxctJ9ZdgpApyJ8fX59cYrsFDgFSkWnwoP9Xrqc9wxwaquuTYu3B8pO gVOgVPTrF2PjHhobLTsFoDt//Vm/6Rm8NXSKUtEvk6b9/orBM2L5OAb8z+ykkHsvOUd2CvwkSkXX /H3Nry4YlhjADGNA0zQtI9R36fxhvhYuXPrF70bv4u2B7984zGwyyQ4CSBZoMa26McMewowvXaNU DGBkcvjaa1NlpwAk+2TekNQ4FqboHaViDJeM7vfMtATZKQBp/nXZwPOH9JWdAmdGqRjGXRelPDCG NxW80V9/1m/Oz/rLToFuoVQMw8dk+uNV6QvTwmUHATzq3hGRv5mVyqCiUVAqRmK1+Dw9d9iV/UNk BwE8ZN6g0L9eM9SHiSrGQakYjM3P8upNw6dF22QHAdxuVkLwC/MzfK1cpoyE35bxhAb6vnXryHER TKyEyqZF2964ZURwgFV2EJwdSsWQovr4r100akSon+wggFuMi/BfffsojksxIkrFqKLDAtbePnJI iLHfdfSicBPs/tcmG3sxx5AQ37WLRkUE87dhSCaXyyU7A3ouv6Jp2vO7852GPH741YuTFkwZcKT4 5JL1+UsO1siOY3jTom2/nZE0dWi0yaQtXXfsri8LZCfqiYFB1vV3jU6IZMs7o6JUDC+3tGHmkr3G 6pVBQdaV84aMHhjx3f+SW9qwdH3+05lVElMZ17Ro2wMXDjh/SF+zz/9mSX2TVXHNyuzyViOd4p4Y YPnyjpEpscxvNDBKRQXG6pU5A/s8e/0we8gpHm4UVzvWbCv+29bSSkNdCiW6ITVs4eSEcYMiTznn trDKceOy/evLnR7P1RNRfuavbhsxNDFUdhD0CqWiCKP0yoszEhdeMNBiPt2yg6aWjs/2lj6zoXBr dYvHghmL1cf04LjouRMTkmOCT/+VztaOR97NfmJPpWeC9RiNogxKRR0675Ukm+Vf16dPSI3s5td3 uVx782rf21n6TGZlSyd/pf91fl/bref1mzk8Jiyou3M0XJq2alPB3LXHOvX6ZqdRVEKpKEW3vXJl /5AX5g6NDgvowX9b72j7an/5q1tL1pU6hAczihCLz92jo64a229IYljPVpfvz6+75o0DRxrbRUfr LRpFMZSKak5UNl26ZG9WQ5vsIP/zxPlxd180yNrrg5WOlzd+eaBi+e5y73ksZjaZFg2LuDSj73mD I21+vT2rrbqh5a4VB1flnRSSTQgaRT2UioIKqxy/WLpnf738Xon2M799XZrYHctdLu1I8cm3txb9 aUe5wJfVmyEhvn+7dODEwZEhNpFLyts7up7+NOf+b4oFvmaP0ShKolTUVF7XfNmSPTtqZH6ivyQ+ aOncoXF2tyw4KKp2JDy+zR2vrBO/HhX1xHXD3PTiX+wru+qtww0dXW56/e6gUVTFino1RYcFrF00 aqq8fScfPS/23TvHuKlRNE2LCbOpfcRyYnhPxp+6acbwmL33jpkY6cZvcXo0isIoFWVFhwW8c/so z+9nHGb1+Xxu+sNXpvlZze77LhazaVKUtGuiB/QLc++Gockxwf++Z+wdQyPO/KWiRdMoSqNUVBYe 7Pf+nWMuSzzDUgaBpsfY9t43duaIGA98r+ExKu/kEePmUtE0LTjA+tyC4a9fMsDd3+j7kmyWjXeN olEURqkoLsRmXXnbqHmDPPEefmhs9IeLx/aPCvLA99I0bVBflQ+V6RvqifswH5PphqkDdtw2PMnW 26ll3ZEabF23iF1YFEepqM/mZ/nnTSPd+qAj0GJae03qn68Z0vtpr92X6LYBGz2I7OO583LGDrJv vW/cLxLc+2lgXIT/ujtH0yjKo1S8gq/V55l5wx8YI3Jq73cm2P333Tt21tg4d7z4aSTYlb1TSQyw BPl7rp41TYsOC1hzx5g/jHfXc8tp0baP7mTvYa9AqXgLi9n052uGPD6pn9iX/dXIyHW/OnfgmXag cofYCGUH6kfImIPgZzU/clX62mtS/U+7M1sPXNk/5P07x0R58N4LElEqXsTHZPrd5YOXzEwU8mpW H9PqKwc9eX2Ghz9Tfyc8yC8uQM63dreBdml9OWts3N7Fo0eFCTsg664M+/JbR4pdwgk9o1S8i0nT bp+ZsurKlF6+zuhwv313j/7leQlyl4pMiFHzCZhbF6mc0eD4Pl/9atyNqWG9f6knzo97em6GJ0fa IB2l4o2uPi/xi3npPV48uGhoxPpfnZsWL//M2vRoD8008zB3L1I5o9BA31duHvnijJ7f1PqYtFVX pvz6F6nfPzcM3oBS8VIXDI/ZsjAjzHp2fwBmk2nFrOTnFwzXydOMAVFq3ql4YJHKGZl9TIsuTNl4 87Bov7NexDowyLpr0cirzxPzoBXGQql4r3Hn2DffMbL7CxSG9vHdc+fI6ycn+ehmf5T+ik4A88wi le6YlBa1876xM2LPYtbWrITgTfeOHZkc7r5U0DNKxaulJYR+vXh0RuiZj3u6ITVsw33jMpIEPGcX qF+EqqUi/07lO/H2wA/uGnP/6G7NR39hRuI7d47p2cE5UAOl4u36RwV9sXjsRXGnG5x49eKkf948 MjxI2IwgUWKlDmi7yZAQX72NbNv8LH+ZM3TN7EERvj95xZgWbdt316g7Lkzp/cE5MDR+/dCiQv3f uWP08xckBlp+/FxrdlJI5p0jb5qWrM/hVj+reYJdRx/qhRityz3NTJp21YSEIw9OeHJKfNQPR1ky Qn3XzB70+X3n6u1GFlJwngr+p6mlY29eTVldS3uXKyLINz2+T3xkoB7L5HsWvZ65NKtGdgqRHpvU 78HLB8tOcTrNbZ1ZBfUnqhyt7Z0p0cGjBkZYRK+XhHHp6y4bcgX5W36W7patXNwnNTpQU6tU+stb +dhNAb7mMSkRY1IkbJsP/ePxF4ytf6RqY/Xxis4+gJegVGBsCcpdgvupOPsA3oNSgbGpN6uY+bgw NEoFxmYP8T/NPFfD0eF8YuCsqPNuhHcymbRJupyD2zP6nE8MdB+lAsNL76vOhfgcpc9IhjegVGB4 KQqVygDORoTBUSowvATdL+zovqQoSgXGRqnA8OLt6lyI+1MqMDhKBYanzLaSsf5mOwe5w+AoFRie zc/Snd379W9qfDBbaMHoKBWoYEysCucKD1XiXwEvR6lABecoca7wOTGUCgyPUoEKBigxvt2f+cQw PkoFKlBjZ99EJaoRXo5SgQri7YYvlRGhfqGBKkw3gJejVKCCyD7+/gY/fHDqgD6yIwACUCpQgdnH NNXgWzGOSAiRHQEQgFKBItINvhXj4H6UClRAqUARht5W0mwypcZRKlABpQJFJBn5sPrLEoM5mwtq oFSgiAQjbys5dVCY7AiAGJQKFNE/KiguwKgf9qekR8mOAIhBqUARvlafByb1k52iJ2YnhaTGM58Y iqBUoI4bpw2YGWuwh2BWH9NjV6Qae4kN8D2UCtThbzWvWTR6zkDDfOr3N5u+XDBkEJOJoRCTy+WS nQEQqbPL9cnukifXF2yuapad5SeZTaZ7RkQunpmcwCaSUAulAjW5NK2k2lFU7XS2dcrO8gNWsyks 0Dc5hjnEUBOlAgAQhjEVAIAwlAoAQBhKBQAgDKUCABCGUgEACEOpAACEoVQAAMJQKgAAYSgVAIAw lAoAQBhKBQAgDKUCABCGUgEACEOpAACEoVQAAMJQKgAAYSgVAIAwlAoAQBhKBQAgDKUCABCGUgEA CEOpAACEoVQAAMJQKgAAYSgVAIAwlAoAQBhKBQAgDKUCABCGUgEACEOpAACEoVQAAMJQKgAAYSgV AIAwlAoAQBhKBQAgDKUCABCGUgEACEOpAACEoVQAAMJQKgAAYSgVAIAwlAoAQBhKBQAgDKUCABCG UgEACEOpAACEoVQAAMJQKgAAYSgVAIAwlAoAQBhKBQAgDKUCABCGUgEACEOpAACEoVQAAMJQKgAA YSgVAIAwlAoAQBhKBQAgDKUCABCGUgEACEOpAACEoVQAAMJQKgAAYSgVAIAwlAoAQBhKBQAgDKUC ABCGUgEACEOpAACEoVQAAMJQKgAAYSgVAIAwlAoAQBhKBQAgDKUCABCGUgEACEOpAACEoVQAAMJQ KgAAYSgVAIAwlAoAQBhKBQAgDKUCABCGUgEACEOpAACEoVQAAMJQKgAAYSgVAIAwlAoAQBhKBQAg DKUCABCGUgEACEOpAACEoVQAAMJQKgAAYSgVAIAwlAoAQBhKBQAgDKUCABCGUgEACEOpAACEoVQA AMJQKgAAYSgVAIAwlAoAQBhKBQAgDKUCABCGUgEACEOpAACE+X9Mf8vSqX9uHwAAAABJRU5ErkJg gg== "
           height="74.99881"
           width="74.99881" />
        <rect
           style="fill:#ffffff;fill-opacity:1"
           id="rect2985-4-49"
           width="569.48401"
           height="14.088922"
           x="21.334208"
           y="805.60449"
           ry="7.0444608" />
        <rect
           style="fill:#ffffff;fill-opacity:1"
           id="rect2985-4-7-6-6-0"
           width="41.6567"
           height="14.088922"
           x="811.98688"
           y="-574.48352"
           ry="7.0444608"
           transform="matrix(0,1,-1,0,0,0)" />
        <text
           xml:space="preserve"
           style="font-size:32.43106842px;font-style:normal;font-weight:bold;line-height:125%;letter-spacing:0px;word-spacing:0px;fill:#ffffff;fill-opacity:1;stroke:none;font-family:Sans;-inkscape-font-specification:Sans Bold"
           x="583.75165"
           y="845.26514"
           id="text8416-9-0-3-74"
           sodipodi:linespacing="125%"><tspan
             sodipodi:role="line"
             id="tspan8418-9-0-2-4"
             x="583.75165"
             y="845.26514"
             style="font-size:16.21553421px;font-weight:bold;fill:#ffffff;-inkscape-font-specification:Sans Bold">virbr0</tspan></text>
        <text
           xml:space="preserve"
           style="font-size:32.43106842px;font-style:normal;font-weight:bold;line-height:125%;letter-spacing:0px;word-spacing:0px;fill:#ffffff;fill-opacity:1;stroke:none;font-family:Sans;-inkscape-font-specification:Sans Bold"
           x="596.79456"
           y="819.20428"
           id="text8416-9-0-3-74-8"
           sodipodi:linespacing="125%"><tspan
             sodipodi:role="line"
             id="tspan8418-9-0-2-4-9"
             x="596.79456"
             y="819.20428"
             style="font-size:16.21553421px;font-weight:bold;fill:#ffffff;-inkscape-font-specification:Sans Bold">Vagrant internal net</tspan></text>
      </g>
    </g>
    <g
       id="g3268"
       style="opacity:0">
      <rect
         transform="matrix(0,1,-1,0,0,0)"
         ry="7.0444608"
         y="-410.25113"
         x="475.16855"
         height="14.088922"
         width="307.72803"
         id="rect2985-4-7-6-1-2-1"
         style="fill:#ff6600;fill-opacity:1" />
      <rect
         transform="matrix(0,1,-1,0,0,0)"
         ry="7.0444608"
         y="-149.80656"
         x="472.71152"
         height="14.088922"
         width="311.00403"
         id="rect2985-4-7-6-1-2"
         style="fill:#ff6600;fill-opacity:1" />
    </g>
    <g
       id="g3272"
       style="opacity:1">
      <rect
         transform="matrix(0,1,-1,0,0,0)"
         ry="7.0444608"
         y="-356.93875"
         x="720.052"
         height="14.088922"
         width="66.939659"
         id="rect2985-4-7-6-1"
         style="fill:#ff6600;fill-opacity:1" />
      <rect
         ry="7.0444608"
         y="773.5993"
         x="23.490473"
         height="14.088922"
         width="619.96381"
         id="rect2985-4-4"
         style="fill:#ff6600;fill-opacity:1" />
      <text
         sodipodi:linespacing="125%"
         id="text8416-9"
         y="786.08942"
         x="649.73236"
         style="font-size:32.43106842000000256px;font-style:normal;font-weight:bold;line-height:125%;letter-spacing:0px;word-spacing:0px;fill:#ff6600;fill-opacity:1;stroke:none;font-family:Sans;-inkscape-font-specification:Sans Bold"
         xml:space="preserve"><tspan
           style="font-size:16.21553421000000128px;font-weight:bold;fill:#ff6600;-inkscape-font-specification:Sans Bold"
           y="786.08942"
           x="649.73236"
           id="tspan8418-9"
           sodipodi:role="line">192.168.98.XX</tspan></text>
      <rect
         transform="matrix(0,1,-1,0,0,0)"
         ry="7.0444608"
         y="-480.73294"
         x="779.81012"
         height="14.088922"
         width="116.95484"
         id="rect2985-4-7-6-1-53"
         style="fill:#ff6600;fill-opacity:1" />
      <text
         sodipodi:linespacing="125%"
         id="text8416-9-0-3"
         y="894.09186"
         x="487.77829"
         style="font-size:32.43106842000000256px;font-style:normal;font-weight:bold;line-height:125%;letter-spacing:0px;word-spacing:0px;fill:#ff6600;fill-opacity:1;stroke:none;font-family:Sans;-inkscape-font-specification:Sans Bold"
         xml:space="preserve"><tspan
           style="font-size:16.21553421000000128px;font-weight:bold;fill:#ff6600;-inkscape-font-specification:Sans Bold"
           y="894.09186"
           x="487.77829"
           id="tspan8418-9-0-2"
           sodipodi:role="line">virbr2</tspan></text>
      <text
         sodipodi:linespacing="125%"
         id="text8416-9-0"
         y="802.18988"
         x="545.34253"
         style="font-size:32.43106842000000256px;font-style:normal;font-weight:bold;line-height:125%;letter-spacing:0px;word-spacing:0px;fill:#ff6600;fill-opacity:1;stroke:none;font-family:Sans;-inkscape-font-specification:Sans Bold"
         xml:space="preserve"><tspan
           style="font-size:16.21553421000000128px;font-weight:bold;fill:#ff6600;-inkscape-font-specification:Sans Bold"
           y="802.18988"
           x="545.34253"
           id="tspan8418-9-0"
           sodipodi:role="line">Provider net (floating IPs)</tspan></text>
    </g>
    <g
       id="g3206"
       style="opacity:1">
      <rect
         ry="7.0444608"
         y="756.41492"
         x="21.538303"
         height="14.088922"
         width="621.00183"
         id="rect2985-4"
         style="fill:#800080;fill-opacity:1" />
      <text
         sodipodi:linespacing="125%"
         id="text8416"
         y="768.37347"
         x="649.23474"
         style="font-size:32.43106842000000256px;font-style:normal;font-weight:bold;line-height:125%;letter-spacing:0px;word-spacing:0px;fill:#800080;fill-opacity:1;stroke:none;font-family:Sans;-inkscape-font-specification:Sans Bold"
         xml:space="preserve"><tspan
           style="font-size:16.21553421000000128px;font-weight:bold;fill:#800080;-inkscape-font-specification:Sans Bold"
           y="768.37347"
           x="649.23474"
           id="tspan8418"
           sodipodi:role="line">192.168.99.XX</tspan></text>
      <rect
         transform="matrix(0,1,-1,0,0,0)"
         ry="7.0444608"
         y="-126.64792"
         x="720.46149"
         height="14.088922"
         width="40.950394"
         id="rect2985-4-7"
         style="fill:#800080;fill-opacity:1" />
      <rect
         transform="matrix(0,1,-1,0,0,0)"
         ry="7.0444608"
         y="-324.23706"
         x="718.41394"
         height="14.088922"
         width="44.226425"
         id="rect2985-4-7-6"
         style="fill:#800080;fill-opacity:1" />
      <rect
         transform="matrix(0,1,-1,0,0,0)"
         ry="7.0444608"
         y="-571.36932"
         x="719.23303"
         height="14.088922"
         width="44.226425"
         id="rect2985-4-7-9"
         style="fill:#800080;fill-opacity:1" />
      <text
         sodipodi:linespacing="125%"
         id="text8416-45"
         y="750.10425"
         x="588.74506"
         style="font-size:32.43106842000000256px;font-style:normal;font-weight:bold;line-height:125%;letter-spacing:0px;word-spacing:0px;fill:#800080;fill-opacity:1;stroke:none;font-family:Sans;-inkscape-font-specification:Sans Bold"
         xml:space="preserve"><tspan
           style="font-size:16.21553421000000128px;font-weight:bold;fill:#800080;-inkscape-font-specification:Sans Bold"
           y="750.10425"
           x="588.74506"
           id="tspan8418-0"
           sodipodi:role="line">Management network</tspan></text>
      <rect
         transform="matrix(0,1,-1,0,0,0)"
         ry="7.0444608"
         y="-527.39825"
         x="757.72626"
         height="14.088922"
         width="122.46891"
         id="rect2985-4-7-6-6"
         style="fill:#800080;fill-opacity:1" />
      <text
         sodipodi:linespacing="125%"
         id="text8416-9-0-3-7"
         y="876.43262"
         x="535.85229"
         style="font-size:32.43106842000000256px;font-style:normal;font-weight:bold;line-height:125%;letter-spacing:0px;word-spacing:0px;fill:#800080;fill-opacity:1;stroke:none;font-family:Sans;-inkscape-font-specification:Sans Bold"
         xml:space="preserve"><tspan
           style="font-size:16.21553421000000128px;font-weight:bold;fill:#800080;-inkscape-font-specification:Sans Bold"
           y="876.43262"
           x="535.85229"
           id="tspan8418-9-0-2-8"
           sodipodi:role="line">virbr1</tspan></text>
    </g>
  </g>
</svg>
